Author Last Name,Author First Name,Date of pub,Title,Journal or Book,Institution (at time of pub),Department,DH region,Geo-coordinates of institution,"Stage in academic career (title: grad student, assistant prof, indep scholar, library)","Type (journal article, book chapter, blog)",Gender,Collaborative or Solo?,"race,projects,gender,woman","research,history,historical,information","time,students,part,people,learning","computing,literary,text,elelectronic,computers","literary,studies,scholars,lui,dhers","media,technology,technologies,critical,practices","literary,reading,text,texts,literature","critical,field,theory,history,methods","tools,tool,web,topic,mapping","libraries,librarians,service,library,work","twitter,social,network,users,scholars","students,tools,teaching,college,pedagogy","values,community,open,collaboration,openness","data,analysis,big,texts,large"
Unsworth,John,12/1/97,Documenting the Reinvention of Text: The Importance of Failure,Lessons Learned in Electronic Publishing,University of Virginia,English,United States,"38.033561, -78.508095",Associate Professor,Conference Paper,M,Solo,0.001825928,0,0.013998783,0,0.000608643,0.017650639,0.010346926,0.058429702,0,0,0,0,0,0
McCarty,Willard,10/1/99,Is Humanities computing an academic discipline?,,King's College London,Digital Humanities,Europe,"51.511520, -0.116072",Professor,Seminar,M,Solo,0,0.001866368,0.027248973,0.023516237,0,0.006345651,0.006345651,0.016424039,0,0,0,0.002239642,0,0.010078387
Unsworth,John,5/1/00,"Scholarly primitives: What methods do humanities researchers have in common, and how might our tools reflect this?",,University of Virginia,English,United States,"38.036316, -78.507344",Associate Professor,Symposium,M,Solo,0,0,0.004282655,0.010171306,0,0.00856531,0,0,0,0,0,0.002141328,0,0.051391863
McCarty,Willard,1/1/02,"Humanities Computing: Essential Problems, Experimental Practice",Literary and Linguistic Computing,King's College London,Digital Humanities,Europe,"51.511520, -0.116072",Professor,Journal Article,M,Solo,0,0.011539917,0.005864548,0.055618615,0,0.024782444,0.010026485,0.019674612,0,0,0,0.000189179,0,0.002459327
de Smedt,Koenraad,4/1/02,Some Reflections on Studies in Humanities Computing,Digital Scholarship in the Humanities,University of Bergen,Linguistics,Europe,"60.387896, 5.322012",Professor,Journal Article,M,Solo,0,0.077249903,0.008883739,0.059482426,0.00038625,0.017381228,0,0.00038625,0,0,0,0.020084975,0,0.001544998
Orlandi,Tito,5/1/02,Is Humanities computing a discipline?,Jahrbuch fur Computerphilologie,University degli Studi de Roma,Digital Humanities,Europe,"41.903890, 12.515061",Professor,Journal Article,M,Solo,0,0.045731707,0.000762195,0.02820122,0,0.012195122,0.009146341,0.009146341,0,0,0,0,0,0
Unsworth,John,11/8/02,What is Humanities Computing and What Is Not?,Unknown,University of Virginia,English,United States,"38.033435, -78.507988",Associate Professor,Blog Post,M,Solo,0,0.001666667,0.003333333,0.048333333,0,0.004444444,0,0.007222222,0,0,0,0.001666667,0,0.005
Smith,Martha Nell,12/1/02,Computing: What's American Literary Study Got to Do with It?,American Literature,University of Maryland,Digital Humanities,United States,"38.986885, -76.942565",Professor,Journal Article,F,Solo,0.000219925,0,0.025071476,0.03914669,0.001319551,0.056740708,0.003958654,0.018913569,0,0,0,0,0,0.001319551
Hockey,Susan,1/1/04,The History of Humanities Computing,,University College London,Libraries,Europe,"51.524559, -0.134083",Professor,Book Chapter,F,Solo,0,0.025232088,0.012616044,0.313496786,0,0.005950964,0,0,0,0,0,0.00166627,0,0.011187812
Davidson,Cathy,2/13/04,A Manifesto for the Humantities in a Technological Age,Manifesto,CUNY,Humanities,United States,"40.748660, -73.983899",Professor,Manifesto,F,Collaborative,0.029883382,0.008746356,0.04664723,0.006559767,0,0.077259475,0.002186589,0.098396501,0,0,0,0,0,0
Unsworth,John,11/19/04,Forms of Attention: Digital Humanities Beyond Representation,,University of Illinois at Urbana-Champaign,English,United States,"40.101985, -88.227183",Professor,Blog Post,M,Solo,0,0,0.007976072,0.04885344,0,0.0036557,0,0.0036557,0,0,0,0.002326354,0,0.041874377
McGann,Jerome,1/1/05,"Culture and Technology: The Way We Live Now, What Is to Be Done?",New Literary History,University of Virginia,English,United States,"38.036316, -78.507344",Professor,Journal Article,M,Solo,0,0.001322751,0.0335097,0.008377425,0.002204586,0.016313933,0,0.0670194,0,0,0,0,0,0
Katz,Stanley,7/1/05,Why Technology Matters: The Humanities in the Twenty-first Century,Interdisciplinary Science Reviews,Princeton University,International Relations,United States,"40.344545, -74.651427",Professor,Journal Article,M,Solo,0,0.043556624,0.032141784,0.022228898,0,0.013517573,0,0.007209372,0,0,0,0.002102734,0.000300391,0
Smith,Martha Nell,10/1/05,Democratizing Knowledge,EHumanities,University of Maryland,English,United States,"38.987219, -76.942533",Professor,Journal Article,F,Solo,0,0,0.053235908,0.002087683,0,0.049060543,0,0.009394572,0,0,0,0.017745303,0,0.007306889
Wikipedia,,12/5/05,Humanities Computing,Wiki,None,None,United States,"37.786905, -122.399775",None,Wiki,N/A,Solo,0,0.004587156,0.013761468,0.479357798,0,0.018348624,0,0.006880734,0,0,0,0.002293578,0,0
Short,Harold,1/1/06,The Role of Humanities Computing: Experiences and Challenges,Literary and Linguistic Computing,King's College London,Digital Humanities,Europe,"51.511520, -0.116072",Professor,Journal Article,M,Solo,0,0.043074324,0.028153153,0.175675676,0,0.018018018,0.001126126,0.000281532,0,0,0,0.001407658,0,0.009853604
Vanhoutte,Edward,6/15/06,Three Barriers to the Development of Digital Tools in and for the Humanities,None,Royal Academy of Dutch Language and Literature,Bibliography,Europe,"51.055450, 3.727831",Coordinator,Conference Paper,M,Solo,0.003516999,0.002344666,0.010550996,0.175849941,0.001172333,0,0,0.007033998,0,0,0,0.003516999,0,0
Jessop,Martyn,10/1/07,The Inhibition of Geographical Information in Digital Humanitites Scholarship,Literary and Linguistic Computing,King's College London,Digital Humanities,Europe,"51.511460, -0.116061",Director,Journal Article,M,Solo,0,0.121917808,0.015068493,0.010958904,0,0.009589041,0,0.006849315,0.008219178,0,0,0.005479452,0,0.089041096
Wikipedia,,12/8/07,Digital Humanities--2007,Wiki,None,None,United States,"37.786905, -122.399775",None,Wiki,N/A,Collaborative,0,0.003236246,0.008090615,0.435275081,0,0.019417476,0,0.014563107,0,0,0,0,0,0.001618123
Liu,Alan,1/1/08,Imagining the New Media Encounter,A Companion to Digital Literary Studies,University of California Santa Barbara,English,United States,"34.413998, -119.849113",Professor,Book Chapter,M,Solo,0.007968902,0.001749271,0.012439261,0.018853256,0.009329446,0.034985423,0.037512148,0.018464529,0,0,0.001360544,0,0,0.007385811
Busa,Roberto,3/1/08,Foreward: Perspectives on the Digital Humanities,A Companion to Digital Humanities,Papal Gregorian University in Rome,Philosophy,Europe,"41.899002, 12.484662",Professor,Book Chapter,M,Solo,0,0.014231499,0.001897533,0.068311195,0,0.017077799,0,0,0,0,0,0,0,0.024667932
Drucker,Johanna,3/1/08,Speculative Computing: Aesthetic Provocations in Humanities Computing,A Companion to Digital Humanities,University of California Los Angeles,Information Studies,United States,"34.075135, -118.442124",Distinguished Professor,Book Chapter,F,Collaborative,0,0,0.012239902,0.007343941,0.002203182,0.056058752,0.001958384,0.030110159,0,0,0,0.000244798,0,0.012729498
Schreibman,Susan,3/1/08,The Digital Humanities and Humanities Computing: An Introduction,A Companion to Digital Humanities,Trinity College Dublin,Humanities,Europe,"53.343755, -6.254475",Professor,Book Chapter,F,Collaborative,0,0,0.013636364,0.125,0,0.081818182,0,0.05,0,0,0,0,0.001136364,0
Cohen,Daniel,8/1/08,Creating Scholarly Tools and Resources for the Digital Ecosystem,First Monday,George Mason University,History,United States,"38.834568, -77.311649",Professor,Journal Article,M,Solo,0.001076426,0,0.044133477,0.002152853,0,0.040904198,0.001076426,0.004305705,0.264800861,0.013993541,0,0,0,0
Turkel,William,11/21/08,A Few Arguments for Humanistic Fabrication,None,Western University,History,Canada,"43.009636, -81.273819",Professor,Blog Post,M,Solo,0,0,0.030023095,0,0,0.004618938,0.020785219,0.027713626,0,0,0,0,0,0.004618938
Schnapp,Jeffrey,12/15/08,A Digital Humanities Manifesto,,Stanford Universtiy,Comparative Literature,United States,"37.427474, -122.169816",Professor,Blog Post,M,Collaborative,0,0,0.021212121,0.001515152,0,0.118181818,0.006060606,0.045454545,0,0,0,0,0,0.021212121
Cheverie,Joan,4/1/09,Digital Scholarship in the University Tenure and Promotion Process,Journal of Scholarly Publishing,Georgetown University,Libraries,United States,"38.906346, -77.072359",Librarian,Journal Article,F,Collaborative,0,0.001121705,0.023555805,0,0.001121705,0.03589456,0.005608525,0.007291082,0,0,0,0,0.016264722,0.020751542
Liu,Alan,4/2/09,Digital Humanities and Academic Change,English Language Notes,University of California Santa Barbara,English,United States,"34.413998, -119.849113",Professor,Journal Article,M,Solo,0.000211238,0.001689903,0.018588931,0.004435995,0.015209125,0.032319392,0.037811576,0.017532742,0.001478665,0,0,0.008660752,0.000211238,0.012251796
Schnapp,Jeffrey,5/1/09,Digital Humanities Manifesto 2.0,,Stanford Universtiy,Comparative Literature,United States,"37.427474, -122.169816",Professor,Manifesto,M,Collaborative,0.000448029,0.015232975,0.029569892,0,0.005824373,0.104390681,0.001344086,0.066756272,0,0.004928315,0,0,0,0.019713262
Svensson,Patrik,7/1/09,Humanities Computing as Digital Humanities,Digital Humanities Quarterly,Umea University,Digital Humanities,Europe,"63.821618, 20.311610",Director,Journal Article,M,Solo,0.000213721,0.012823253,0.019662321,0.171617867,0,0.049796965,0,0.012395811,0,0,0,0,0,0.005129301
Borgman,Christine,12/1/09,The Digital Future is Now: A Call to Action for the Humanities,Digital Humanities Quarterly,University of California Los Angeles,Information Studies,United States,"34.068912, -118.445213",Professor,Journal Article,F,Solo,0,0.023865232,0.034783965,0.010450788,0,0.034783965,0,0.000155982,0,0,0,0,0,0.015910154
Pannapacker,William,12/28/09,The MLA and the Digital Humanities,The Chronicle of Higher Education,Hope College,English,United States,"42.787148, -86.102314",Professor,Blog Post,M,Solo,0,0,0.028776978,0,0.010791367,0.097122302,0,0.129496403,0,0,0,0.035971223,0,0
Bloomsburg University Undergraduates,,1/1/10,Bloomsburg U Undergraduate Manifesto on Digital Humanities,Manifesto,Bloomsburg University,English,United States,"41.008371, -76.447275",Undergraduate Student,Manifesto,N/A,Collaborative,0,0,0.063888889,0,0,0.058333333,0.008333333,0.061111111,0,0,0.005555556,0.180555556,0.019444444,0
Kirschenbaum,Matthew,1/1/10,What is Digital Humanities and What's It Doing in English Departments?,ADE Bulletin,University of Maryland,English,United States,"38.987002, -76.942565",Associate Professor,Seminar,M,Solo,0,0,0.047619048,0.074829932,0.027829314,0.008039579,0,0.025974026,0,0,0.03834261,0.008658009,0,0
Parry,David,1/6/10,"The MLA, @briancroxall, and the non-rise of the Digital Humanities",Blog,University of Texas at Dallas,Media Studies,United States,"32.985807, -96.749917",Assistant Professor,Blog Post,M,Solo,0,0,0.01951952,0,0.003003003,0.03003003,0,0.004504505,0,0,0.096096096,0.013513514,0,0
Bogost,Ian,1/9/10,The Turtlenecked Hairshirt: Fetid and Fragrant Futures for the Humanities,None,Georgia Institute of Technology,Communication,United States,"33.775653, -84.396274",Associate Professor,Blog Post,M,Solo,0,0,0.007490637,0,0,0.011235955,0,0.011235955,0.007490637,0,0,0,0,0
Mullen,Lincoln,4/29/10,"Digital Humanities is a Spectrum; or, we're all digital humanists now",,Brandeis University,History,United States,"42.3662517, -71.2585265",Graduate Student,Blog Post,M,Solo,0,0,0.097087379,0.014563107,0,0,0,0.033980583,0,0,0.004854369,0.067961165,0,0.029126214
Scheinfeldt,Tom,5/1/10,Where's the Beef? Does Digital Humanities Have to Answer Questions,Found History,University of Connecticut,Digital Humanities,United States,"41.807685, -72.253981",Director,Journal Editorial,M,Solo,0,0,0,0.001984127,0.001984127,0.017857143,0,0,0.001984127,0,0,0,0.031746032,0
Scheinfeldt,Tom,5/2/10,Why Digital Humanities is 'Nice',Found History,University of Connecticut,Digital Humanities,United States,"41.807685, -72.253981",Director,Journal Editorial,M,Solo,0,0,0.068027211,0,0,0.006802721,0,0.217687075,0,0.054421769,0,0.013605442,0.013605442,0.006802721
Unsworth,John,6/1/10,"The State of Digital Humanities, 2010","Digital Humanities Summer Institute,",University of Illinois at Urbana-Champaign,English,United States,"40.101969, -88.227108",Professor,Blog Post,M,Solo,0,0,0.092631579,0.014736842,0,0.004210526,0,0,0,0.002105263,0,0.029473684,0,0.006315789
Terras,Melissa,7/10/10,"DH2010 Plenary: Present, Not Voting: Digital Humanities in the Panopticon",,University College London,Digital Humanities,Europe,"51.5245592, -0.1340401",Professor,Blog Post,F,Solo,0,0,0.063458111,0.013190731,0,0.0057041,0,0.001426025,0,0,0,0,0,0
Fitzpatrick,Kathleen,7/13/10,Reporting from the Digital Humanities 2010 Conference,Chronicle of Higher Education,New York University,English,United States,"40.729569, -73.996389",Visiting Scholar,Blog Post,F,Solo,0,0,0.048888889,0.062222222,0.008888889,0.093333333,0,0,0,0,0,0,0,0
Kolowich,Steve,7/14/10,Google and the Digital Humanities,Chronicle of Higher Education,,None,United States,"38.906327, -77.049704",Journalist,Blog Post,M,Solo,0,0.014409222,0,0,0,0.011527378,0.017291066,0.005763689,0.017291066,0,0.008645533,0.005763689,0.002881844,0
Orwant,Jon,7/14/10,Our Commitment to the Digital Humanities,,Google,Google Books,United States,"37.421991, -122.084068",Engineering Manager,Blog Post,M,Solo,0,0.077253219,0,0,0.006437768,0.004291845,0.004291845,0,0.027896996,0,0.006437768,0.027896996,0,0.113733906
Forster,Chris,9/8/10,I'm Chris. Where am I wrong?,Blog,Syracuse University,English,United States,"43.0391534, -76.1351158",Assistant Professor,Blog Post,M,Solo,0,0,0.030373832,0.021028037,0.079439252,0.028037383,0,0.119158879,0,0,0,0.009345794,0,0.01635514
Svensson,Patrik,10/1/10,The Landscape of Digital Humanities,Digital Humanities Quarterly,Umea University,Digital Humanities,Europe,"63.821618, 20.311610",Director,Journal Article,M,Solo,0.001633987,0.008079158,0.027687001,0.018972404,0,0.119734931,0.004992738,0,0,0,0,9.08E-05,0,0.010439361
Rieger,Oya Y.,10/4/10,Framing digital humanities: The role of new media in humanities scholarship,First Monday,Cornell University,Libraries,United States,"42.453687, -76.473449",Librarian,Journal Article,F,Solo,0.003770237,0,0.024617432,0.011754269,0.007318696,0.377245509,0,0.006431581,0,0,0,0.000887115,0,0.010645376
Scheinfeldt,Tom,12/2/10,Stuff Digital Humanists Like,Blog,University of Connecticut,Digital Humanities,United States,"41.8077414, -72.2539805",Associate Professor,Blog Post,M,Solo,0.002735978,0,0.090287278,0,0,0.019151847,0,0.002735978,0,0,0.076607387,0,0.190150479,0
Bailey,Moya,1/1/11,"All the Digital Humanists are White, all the nerds are men, but some of us are brave",Journal of Digital Humanities,Emory University,Cultural Studies,United States,"33.792279, -84.324128",Graduate Student,Journal Article,F,Solo,0.330373002,0,0.079928952,0.008880995,0,0.088809947,0.010657194,0.019538188,0,0,0,0,0,0
Svensson,Patrik,1/1/11,From Optical Fiber To Conceptual Cyberinfrastructure,Digital Humanities Quarterly,Umea University,Digital Humanities,Europe,"63.821618, 20.311610",Director,Journal Article,M,Solo,0,0.006479482,0.025235876,0.005797431,0,0.061384563,0,0.0004547,0,0,0.001818802,0,0,0.005229055
Liu,Alan,1/7/11,Where is Cultural Criticism in the Digital Humanities?,MLA,University of California Santa Barbara,English,United States,"34.413998, -119.849113",Distinguished Professor,Presentation,M,Solo,0,0,0.049853372,0,0,0.041055718,0.057184751,0.07771261,0,0.004398827,0,0,0,0.021994135
Hall,Gary,1/12/11,On the limits of openness V: there are no digital humanities,Media Gifts blog,Coventry University,Media Studies,Europe,"52.407207, -1.503746",Professor,Blog Post,M,Solo,0,0,0.002531646,0.002531646,0,0.04556962,0.032911392,0.010126582,0,0,0,0.027848101,0,0.032911392
Davidson,Cathy,1/13/11,Advice to DigHum Job Candidates: Don't Lead with HTML,HASTAC,CUNY,English,United States,"40.748613, -73.983942",Distinguished Professor,Blog Post,F,Solo,0.003838772,0,0.070057582,0,0,0.030710173,0,0.045105566,0.012476008,0,0,0.013435701,0,0
Berry,David M,1/14/11,"Digital Humanities: First, Second, and Third Wave",Stunlaw blog,University of Sussex,Digital Humanities,Europe,"50.867164, -0.087850",Professor,Blog Post,M,Solo,0,0.001432665,0.010744986,0.038681948,0.002148997,0.08739255,0.041547278,0.019340974,0,0,0.004297994,0.004297994,0,0.020057307
Wikipedia,,1/24/11,Digital Humanities--2011,Wiki,None,None,United States,"37.786905, -122.399775",None,Wiki,N/A,Collaborative,0,0,0.003436426,0.475945017,0.001718213,0.041237113,0,0,0,0,0,0,0.001718213,0.003436426
Blevins,Cameron,2/1/11,Kobe Bryant and the Digital Humanities,,Stanford Universtiy,History,United States,"37.427474, -122.169816",Graduate Student,Blog Post,M,Solo,0,0,0.006423983,0.002141328,0.006423983,0.002141328,0.021413276,0.047109208,0.010706638,0,0,0,0,0.059957173
Cordell,Ryan,2/1/11,"More Hackity Hack, Less Yackety Yack: Ruby for Humanists",The Chronicle of Higher Education,Northeastern University,English,United States,"42.340853, -71.088893",Assistant Professor,Popular Article,M,Solo,0,0,0.119863014,0,0,0,0,0,0,0,0,0,0,0
Hanley,Larry,2/6/11,Digital Humanities: A Multiple Choice Test,,San Francisco State University,English,United States,"37.722033, -122.478231",Associate Professor,Blog Post,M,Solo,0,0,0,0.011389522,0.002277904,0.036446469,0,0.06833713,0,0,0,0.077448747,0.01594533,0.002277904
Fraistat,Neil,2/7/11,The Questions of Digital Humanities,Blog,University of Maryland,English,United States,"38.987010, -76.942694",Professor,Conference Paper,M,Solo,0.014729951,0,0.080196399,0,0.073649755,0.047463175,0.011456628,0.086743044,0,0,0,0,0,0.001636661
Rockwell,Geoffrey,3/18/11,Day of DH: Defining the Digital Humanities,Debates in the Digital Humanities,University of Alberta,Philosophy,Canada,"53.523232, -113.526362",Professor,Book Chapter,M,Solo,0,0.008116883,0.032467532,0.008116883,0.00974026,0.064935065,0,0.076298701,0.001623377,0.003246753,0.00487013,0,0.003246753,0
Dacos,Marin,3/26/11,Manifesto for the Digital Humanities,Unknown,University of Avignon,Publishing,Europe,"43.949229, 4.818084",Director,Blog Post,M,Solo,0,0.079710145,0.014492754,0.007246377,0.007246377,0.003623188,0,0,0,0,0,0,0.09057971,0
Gailey,Amanda,5/6/11,Credential Creep in the Digital Humanities,#alt-academy,University of Nebraska,English,United States,"40.819774, -96.700262",Assistant Professor,Blog Post,F,Collaborative,0,0.002979146,0.056603774,0,0,0.004965243,0,0.038728898,0,0,0,0,0,0.001986097
Fitzpatrick,Kathleen,5/8/11,"The Humanities, Done Digitally",The Chronicle of Higher Education,Pomona College,Media Studies,United States,"34.098651, -117.711971",Professor,Popular Article,F,Solo,0,0,0,0.08041958,0,0.06993007,0,0.113636364,0,0,0,0.001748252,0,0.003496503
Alvarado,Rafael,5/11/11,The Digital Humanities Situation,The Transducer,University of Virginia,Media Studies,United States,"38.033544, -78.507679",Director,Journal Article,M,Solo,0,0.000984252,0.031496063,0.017716535,0.049212598,0.087598425,0.022637795,0.045275591,0,0,0,0.000984252,0,0.020669291
Owens,Trevor,7/23/11,The digial humanities as the DIY humanities,Blog,Institute of Museum and Library Services,None,United States,"38.8844802, -77.0273517",None,Blog Post,M,Solo,0,0,0.099099099,0,0,0.006756757,0,0.002252252,0.009009009,0,0,0,0,0
Pannapacker,William,7/31/11,"Big Tent Digital Humanities, A View from the Edge, Part 1",The Chronicle of Higher Education,Hope College,English,United States,"42.787148, -86.102314",Professor,Blog Post,M,Solo,0.001140251,0.011402509,0.098061574,0.012542759,0.005701254,0.035347777,0.033067275,0.01368301,0.002280502,0,0.004561003,0.01368301,0,0
Bogost,Ian,8/23/11,"Beyond the Elbow-Patched Playground, Part 2: The Humanities in Public",Ian Bogost Blog,Georgia Institute of Technology,Media Studies,United States,"33.775573, -84.396178",Professor,Blog Post,M,Collaborative,0,0,0.030927835,0,0,0.026509573,0.014727541,0.103092784,0,0,0,0.001472754,0,0
Bogost,Ian,8/25/11,"Beyond the Elbow-Patched Playground, Part 1: The Digital Humanities",Ian Bogost Blog,Georgia Institute of Technology,Media Studies,United States,"33.775573, -84.396178",Professor,Blog Post,M,Collaborative,0,0,0.024301337,0,0.041312272,0.060753341,0.002430134,0.061968408,0,0,0,0,0,0
Pannapacker,William,9/8/11,"Big Tent Digital Humanities, A View from the Edge, Part 2",The Chronicle of Higher Education,Hope College,English,United States,"42.787148, -86.102314",Professor,Blog Post,M,Solo,0,0,0.056060606,0,0,0.083333333,0,0.033333333,0.001515152,0,0,0,0,0.001515152
Owens,Trevor,10/11/11,Interview with Brett Bobley of the Office for Digital Humanities at NEH,The Signal,Library of Congress,Administration,United States,"38.888684, -77.004719",Digital Archivist,Blog Post,M,Solo,0,0.041970803,0.056569343,0,0,0,0,0,0.063868613,0,0,0,0,0.032846715
Liu,Alan,12/1/11,The State of the Digital Humanities: A Report and a Critique,Debates in the Digital Humanities,University of California Santa Barbara,English,United States,"34.413998, -119.849113",Distinguished Professor,Journal Article,M,Solo,0,0.017289165,0.009766398,0.025207866,0.003959351,0.058334433,0.03932955,0.017817078,0,0,0.007918701,0,0,0.025999736
Fish,Stanley,12/26/11,The Old Order Changeth,New York Times,Florida International University,Humanities,United States,"25.756208, -80.373874",Professor,Blog Post,M,Solo,0.026266417,0,0.054409006,0.013133208,0.039399625,0.015009381,0.058161351,0.080675422,0,0,0,0.020637899,0,0
Gold,Matthew,1/1/12,The Digital Humanities Moment,Debates in the Digital Humanities,CUNY,The Graduate Center,United States,"40.748613, -73.983942",Associate Professor,Book Chapter,M,Solo,0.000642261,0,0.039177906,0.084136159,0.021194605,0.029543995,0.003211304,0.049454078,0,0,0.000642261,0.016056519,0.019267823,0.013487476
O'Sullivan,James,1/1/12,"What Makes Digital Humanities, Digital?",The Boolean,University of College Cork,Digital Humanities,Europe,"51.892183, -8.493145",Graduate Student,Journal Article,M,Solo,0,0.001360544,0.013605442,0.073469388,0,0.066666667,0.054421769,0.029931973,0,0,0,0,0,0.100680272
Spiro,Lisa,1/1/12,This Is Why We Fight: Defining the Values of the Digital Humanities,Debates in the Digital Humanities,National Institute for Technology in Liberal Education,Digital Humanities,United States,"30.634789, -97.661535",Director,Book Chapter,F,Solo,0.000241022,0,0.061942637,0.026512413,0.010363943,0.031332851,0.001928175,0.040250663,0,0.012292119,0,0,0.366112316,0.000241022
Svensson,Patrik,1/1/12,Beyond the Big Tent,Debates in the Digital Humanities,University of Ume__’,Digital Humanities,Europe,"63.821594, 20.311610",Director,Journal Article,M,Solo,0,0.006146754,0.025355359,0.018824433,0.000384172,0.056089128,0,0.010372647,0,0,0,0.004610065,0,0.001920861
Svensson,Patrik,1/2/12,Envisioning the Digital Humanities,Digital Humanities Quarterly,University of Ume__’,Digital Humanities,Europe,"63.821594, 20.311610",Director,Journal Article,M,Solo,0,0.003974409,0.018321055,0.009499806,0.003198914,0.093059325,0.00029081,0.005816208,0,0,0,0,0,0.000484684
Fish,Stanley,1/9/12,The Digital Humanities and the Transcending of Mortality,New York Times,Florida International University,Humanities,United States,"25.756208, -80.373874",Professor,Blog Post,M,Solo,0,0,0.03490991,0.01463964,0,0.030405405,0.059684685,0.041666667,0,0,0,0,0,0
Fish,Stanley,1/23/12,Mind Your P's and B's: The Digital Humanities and Interpretation,New York Times,Florida International University,Humanities,United States,"25.756208, -80.373874",Professor,Blog Post,M,Solo,0,0.007346189,0.018365473,0.001836547,0.004591368,0.025711662,0.321395776,0.055096419,0,0,0,0,0.000918274,0.041322314
Priego,Ernesto,1/26/12,Globalisation of Digital Humanities: An Uneven Promise,Blog,City University London,Libraries,Europe,"51.5280395, -0.1015937",Assistant Professor,Blog Post,M,Solo,0,0,0.152905199,0,0,0.113149847,0.003058104,0.012232416,0,0,0,0,0,0
Smith,Kathleen,2/1/12,"Q&A with Brett Bobley, Director of the NEH's Office of Digital Humanities",HASTAC,Gottingen State and University Library,Libraries,Europe,"51.5395, -9.9359",Postdoctoral Fellow,Journal Editorial,F,Collaborative,0,0.001777778,0.039111111,0,0,0.035555556,0,0,0.043555556,0,0,0.005333333,0.019555556,0.019555556
Schreibman,Susan,7/1/12,Digital Humanities: Centres and Peripheries,Historical Social Research/Historische Sozialforschung,Trinity College Dublin,Humanities,Europe,"53.343755, -6.254475",Professor,Journal Article,F,Solo,0,0.021693784,0.037964122,0.253233208,0.030871923,0.042553191,0.010846892,0.054651648,0.004171882,0,0.001251564,0.016270338,0,0.012098456
Reid,Alex,7/23/12,On the necessity of digital humanities centers,Blog,University of Buffalo,English,United States,"43.0008093, -78.7889697",Associate Professor,Blog Post,M,Solo,0,0,0.021108179,0,0,0.026385224,0,0.09762533,0,0,0,0.007915567,0,0
Liu,Alan,10/1/12,Humanities in the digital age,Inside Higher Ed,University of California Santa Barbara,English,United States,"34.414078, -119.847542",Professor,Blog Post,M,Collaborative,0,0,0.078313253,0.000860585,0,0.015490534,0.009466437,0.038726334,0,0,0,0.018932874,0,0
Koller,Guido,10/5/12,Foucault revisited for the Digital Humanities,We Think History,Swiss Federal Archives,Libraries,Europe,"46.940422, 7.446504",Public Historian,Blog Post,M,Solo,0,0.022181146,0.001848429,0.003696858,0.027726433,0.020332717,0.033271719,0,0,0.001848429,0,0,0,0.009242144
Syme,Holger,10/29/12,Stephen Marche? Again?,None,University of Toronto,English,Canada,"43.662915, -79.395613",Associate Professor,Blog Post,M,Solo,0,0.001666667,0.006666667,0,0.006666667,0.001666667,0.140833333,0.015,0,0.005833333,0,0,0.005,0.021666667
Priego,Ernesto,10/30/12,My Discipline is Bigger than Yours: Digital Humanities and the Conflict of the Faculties,Blog,City University London,Libraries,Europe,"51.5280395, -0.1015937",Assistant Professor,Blog Post,M,Solo,0,0,0.008108108,0,0.025675676,0.032432432,0.15,0.005405405,0,0,0,0,0,0.021621622
Rizzo,Mary,11/2/12,Every tool is a weapon: Why the digital humanities movement needs public history,Blog,Rutgers University,Business School,United States,"40.4981958, -74.4467958",Assistant Professor,Blog Post,F,Solo,0.089015152,0.001893939,0.034090909,0,0.026515152,0.013257576,0.009469697,0.064393939,0,0,0,0.026515152,0.081439394,0
Lothian,Alexis,1/1/13,Can Digital Humanities Mean Transformative Critique?,Journal of e-Media Studies,Indiana University of Pennsylvania,English,United States,"40.617195, -79.158419",Assistant Professor,Journal Article,F,Solo,0.319760926,0,0.074336944,0,0.025401569,0.096750093,0,0.032499066,0,0,0,0.012700784,0,0
Cong-Huyen,Anne,1/7/13,"#mla13 ""Thinking Through Race"" Presentation",Anita Conchita Blog,Whittier College,Digital Humanities,United States,"33.978802, -118.031705",Digital Scholar,Blog Post,F,Solo,0.266206897,0,0.126896552,0.004137931,0,0.046896552,0.00137931,0.034482759,0,0,0,0,0,0.011034483
Grusin,Richard,1/9/13,The Dark Side of Digital Humanities Part 2,Thinking C21,"University of Wisconson, Milwaukee",English,United States,"43.076868, -87.880504",Professor,Journal Article,M,Solo,0,0,0.014354067,0,0,0.044976077,0,0.038277512,0,0,0,0.006698565,0,0
Golumbia,David,1/20/13,Digital Humanities': Two Definitions,uncomputing,Virginia Commonwealth University,English,United States,"37.549387, -77.454426",Associate Professor,Blog Post,M,Solo,0,0,0.060457516,0.004901961,0.075163399,0.117647059,0,0.114379085,0,0,0,0.004901961,0,0.006535948
Pannapacker,William,2/1/13,Stop Calling It 'Digital Humanities',,Hope College,English,United States,"42.787148, -86.102314",Professor,Journal Editorial,M,Solo,0,0.015584416,0.120779221,0,0.003896104,0.003896104,0,0.006493506,0,0,0,0.045454545,0.003896104,0
Dabrowka,Andrezej,2/20/13,Style,adabrowka blog,Polish Academy of Sciences,English,Europe,"52.225977, 20.950392",Professor,Blog Post,N/A,Solo,0,0,0.01659751,0.029045643,0.062240664,0.024896266,0,0.01659751,0,0,0,0,0,0.112033195
DrLimbo,,3/5/13,What the Hell are the Digital Humanities?,DrLimbo Blog,None,None,United States,None,Graduate Student,Blog Post,N/A,Solo,0,0,0.039840637,0.003984064,0.011952191,0.06374502,0,0.023904382,0,0,0,0.083665339,0,0
Ramsay,Stephen,4/30/13,DH and CS,Blog,University of Nebraska-Lincoln,English,United States,"40.8201966, -96.7004763",Associate Professor,Blog Post,M,Solo,0,0,0.014051522,0.00234192,0,0.023419204,0.004683841,0,0,0,0,0,0,0
O'Connor,Alex,5/7/13,On Digital Humanities,Blog,Dublin City University,Computer Science,Europe,"53.385088, -6.257055",Assistant Professor,Blog Post,M,Solo,0,0.037383178,0.024922118,0.065420561,0,0.018691589,0,0.056074766,0,0.003115265,0,0,0,0.003115265
Munoz,Trevor,7/1/13,Data Curation as Publishing for the Digital Humanities,Journal of Digital Humanities,University of Maryland College Park,Libraries,United States,"38.987010, -76.942694",Associate Director,Journal Article,M,Solo,0,0.002696629,0.026067416,0.013483146,0.001797753,0.021123596,0.000449438,0.013033708,0,0.009438202,0,0,0,0.016179775
Alvarado,Rafael,7/25/13,The Code Problem,The Transducer Blog,University of Virginia,Digital Humanities,United States,"38.033629, -78.507891",Associate Director,Blog Post,M,Solo,0,0.002754821,0.016528926,0.005509642,0,0.00137741,0,0,0.011019284,0,0,0.027548209,0,0.045454545
Ridge,Mia,8/25/13,Beyond code monkies: recognising technologists' intellectual contributions,Blog,Open University,Digital Humanities,Europe,"52.0250914, -0.7104769",Graduate Student,Blog Post,F,Solo,0,0,0.053452116,0.006681514,0,0.048997773,0,0.013363029,0.017817372,0,0,0,0,0
Hay,Alexander,8/30/13,In defense of the (digital) humanities,Blog,Software Sustainability Institute,None,Europe,"55.944438, -3.189263",Policy and Communications Consultant,Blog Post,M,Solo,0.016611296,0,0.029900332,0.009966777,0,0.019933555,0.083056478,0.003322259,0,0,0,0,0,0.003322259
Pannapacker,William,9/1/13,Hacking' and 'Yacking' About the Digital Humanities,The Chronicle of Higher Education,Hope College,English,United States,"42.787148, -86.102314",Professor,Journal Editorial,M,Solo,0.03,0.018571429,0.071428571,0.107142857,0.037142857,0.034285714,0.005714286,0.045714286,0,0,0,0,0.01,0.001428571
Stommel,Jesse,9/1/13,The Digital Humanities Is About Breaking Stuff,"Hybrid Pedagogy: A digital journal of learning, teaching, and technology",University of Mary Washington,Digital Humanities,United States,"38.299708, -77.471443",Director,Journal Article,M,Solo,0,0,0.037168142,0,0,0.053097345,0.113274336,0.024778761,0,0,0.019469027,0.109734513,0,0.003539823
Morgan,Paige,9/2/13,What Digital Humanists Do,Blog,University of Washington,English,United States,"47.6553351, -122.3035199",Graduate Student,Blog Post,F,Solo,0.014127764,0,0.113636364,0,0.001842752,0.012285012,0.017813268,0,0,0,0,0.028255528,0,0.057125307
Lucas,Gerald,9/9/13,Defining Digital Humanities,Medium,Middle Georgia State University,English,United States,"32.807748, -83.731241",Professor,Blog Post,M,Solo,0,0,0.057483731,0,0.001084599,0.15835141,0.01626898,0.034707158,0,0,0,0.006507592,0.037960954,0.002169197
Ramsay,Stephen,9/12/13,Why I'm In It,Blog,University of Nebraska-Lincoln,English,United States,"40.8201966, -96.7004763",Associate Professor,Blog Post,M,Solo,0.021505376,0,0.084485407,0,0.029185868,0,0.019969278,0.082949309,0,0,0,0,0,0.02764977
Arnaud,Pascal,9/13/13,Young Researchers in Digital Humanities: A Manifesto,Manifesto,University of Lyon,History,Europe,"45.749529, 4.837416",Professor,Manifesto,M,Collaborative,0.005722461,0.08583691,0.072961373,0,0,0.048640916,0,0.022889843,0,0,0.005722461,0,0.015736767,0.014306152
Morgano,Sarah,9/23/13,Like the MTA Improving non-stop!*,Blog,CUNY,None,United States,"40.7506304,-73.9734177",None,Blog Post,F,Solo,0.019512195,0.009756098,0.209756098,0.019512195,0,0.019512195,0.019512195,0.024390244,0,0,0,0.097560976,0,0
Cong-Huyen,Anne,9/24/13,#CESA2013: Race in DH - Transformative Asian/American Digital Humanities,Anita Conchita Blog,Whittier College,Digital Humanities,United States,"33.978802, -118.031705",Digital Scholar,Blog Post,F,Solo,0.28627451,0.010784314,0.130392157,0,0.02254902,0.030392157,0,0.026470588,0,0,0,0,0,0.007843137
Priego,Ernesto,10/3/13,Where do we go from here? A comment on 'building' in the digital humanities,Blog,City University London,Libraries,Europe,"51.5280395, -0.1015937",Assistant Professor,Blog Post,M,Solo,0.02811245,0,0.118473896,0.006024096,0.110441767,0.040160643,0.002008032,0.008032129,0,0,0,0,0,0
Hawk,Brandon,10/16/13,DH Values Statement Planning,Blog,Rhone Island College,English,United States,"41.842071, -71.461204",Assistant Professor,Blog Post,M,Solo,0,0,0.107526882,0,0.053763441,0,0.010752688,0.010752688,0,0,0,0.010752688,0.268817204,0
Berry,David M,10/18/13,Post-Digital Humanities,Stunlaw blog,University of Sussex,Digital Humanities,Europe,"50.867164, -0.087850",Professor,Blog Post,M,Solo,0.005633803,0,0.007042254,0.033802817,0.014084507,0.049295775,0.009859155,0.009859155,0,0,0,0,0,0.014084507
Gil,Alex,11/24/13,Spreading the love: The wrong and the right in digital humanities,elotroalex,Columbia University,Libraries,United States,"40.808575, -73.962755",Digital Scholarship Coordinator,Blog Post,M,Solo,0.073232323,0,0.095959596,0,0,0.042929293,0,0.042929293,0,0,0,0,0,0.002525253
Manovich,Lev,12/6/13,How to do digital humanities right?,Blog,CUNY,The Graduate Center,United States,"40.748613, -73.983942",Professor,Blog Post,M,Solo,0.015384615,0,0,0,0,0.015384615,0,0,0,0,0,0,0,0.338461538
Piotrowski,Michael,12/8/13,Digital Humanities Defined,Blog,Universite de Lausanne,Digital Humanities,Europe,"46.5210895, 6.5801606",Professor,Blog Post,M,Solo,0.002444988,0.034229829,0.019559902,0.029339853,0,0,0.009779951,0.012224939,0.002444988,0,0,0.002444988,0,0
Weingart,Scott,12/8/13,A Working Definition of Digital Humanities,Blog,Indiana University,Information Studies,United States,"39.176580, -86.512953",Graduate Student,Blog Post,M,Solo,0,0.017307692,0.041346154,0.023076923,0.032692308,0.031730769,0.0125,0.005769231,0,0,0,0.077884615,0,0.014423077
Barnett,Fiona,1/1/14,The Brave Side of Digital Humanities,differences,Duke University,English,United States,"36.002077, -78.941544",Graduate Student,Journal Article,F,Solo,0.432942014,0,0.053006048,0,0.062966916,0.038064746,0,0.018498755,0,0,0,0,0,0
Golumbia,David,1/1/14,Death of a Discipline,Differences: A Journal of Feminist Cultural Studies,Virginia Commonwealth University,English,United States,"37.548953, -77.453418",Associate Professor,Journal Article,M,Solo,0.021396095,0,0.035838459,0.005081573,0.322278684,0.03155924,0.030221984,0.065792993,0.000534902,0,0,0,0,0.000267451
Grusin,Richard,1/1/14,The Dark Side of Digital Humanities: Dispatches from Two Recent MLA Conventions,Differences: A Journal of Feminist Cultural Studies,"University of Wisconson, Milwaukee",English,United States,"43.076868, -87.880504",Professor,Journal Article,M,Solo,0.025672878,0.002484472,0.029813665,0,0.023188406,0.038095238,0.000414079,0.033126294,0,0,0,0.009937888,0,0.002070393
Kirschenbaum,Matthew,1/1/14,What Is Digital Humanities and Why Are They Saying Such Terrible Things About TI,Differences: A Journal of Feminist Cultural Studies,University of Maryland,English,United States,"38.987035, -76.942554",Associate Professor,Journal Article,M,Solo,0.024943311,0,0.036281179,0.005183026,0.228701004,0.008098477,0.02170392,0.040816327,0,0,0.025591189,0.002915452,0,0.005183026
McGinnis,Scott Paul,1/1/14,"DH vs. DH, and Moretti's War",Blog,University of California Berkeley,History,United States,"37.8718992, -122.2585399",Graduate Student,Blog Post,M,Solo,0,0.013899614,0.015444015,0.025482625,0.055598456,0.010810811,0.17992278,0.053281853,0.071814672,0,0,0,0,0
Maynor,Ashley,1/20/14,A 3-step Introduction to Digital Humanities for Library-Dwellers,Blog,University of Tennessee Knoxville,Libraries,United States,"35.954393, -83.929617",Librarian,Blog Post,F,Solo,0,0,0.050746269,0.005970149,0.03880597,0.020895522,0.002985075,0.005970149,0,0.152238806,0,0.020895522,0.032835821,0.002985075
Ortega,Elika,2/3/14,Notes Towards Moving Ideas Around the DH World,Blog,University of Kansas,Digital Humanities,United States,"38.9543439, -95.2557961",Postdoctoral Fellow,Blog Post,F,Solo,0.00304878,0.00304878,0.076219512,0.00152439,0.027439024,0.009146341,0,0.004573171,0,0,0,0.004573171,0.00152439,0
Barrett,Paul,2/4/14,Where is the Nation in Digital Humanities,Editing Modernism in Canada,University of Toronto,Engineering,Canada,"43.663070, -79.395656",Adjunct Faculty,Blog Post,M,Solo,0.269978402,0,0.008639309,0,0.017278618,0.021598272,0.025917927,0.028077754,0,0,0,0,0,0.021598272
Underwood,Ted,3/18/14,How much DH can we fit in a literature department?,None,University of Illinois Urbana Champaign,English,United States,"40.101960, -88.226947",Professor,Blog Post,M,Solo,0,0,0.025210084,0,0.004201681,0.021008403,0.071428571,0.027310924,0,0,0,0,0.010504202,0.008403361
Schuman,Rebecca,4/1/14,Will Digital Humanities #Disrupt the University? First I have to figure out what it is.,Blog,University of Missouri St. Louis,Honors College,United States,"38.709198, -90.308420",Adjunct Faculty,Blog Post,F,Solo,0.042128603,0,0.024390244,0.00443459,0,0.017738359,0,0,0,0,0,0.053215078,0,0.013303769
Scheinfeldt,Tom,4/7/14,The Dividends of Difference: Recognizing Digital Humanities' Diverse Family Tree/s,Blog,University of Connecticut,Digital Humanities,United States,"41.8077414, -72.2539805",Associate Professor,Blog Post,M,Solo,0.048979592,0.002040816,0.012244898,0.081632653,0.081632653,0,0,0.016326531,0,0,0,0,0.024489796,0
Bowles,Mark,4/17/14,Why the Digital Humanities Matter,Online Learning Tips Blog,American Public University,History,United States,"39.287824, -77.859610",Professor,Blog Post,M,Solo,0,0.032128514,0.024096386,0.036144578,0,0,0,0,0,0,0,0,0,0
Sneha,P.P.,4/25/14,Digital Humanities and the Problem of Definition,None,The Centre for Internet and Society,None,Other,"32.634688, 76.854417",Journalist,Blog Post,F,Solo,0,0,0.009975062,0.014962594,0.158354115,0.10723192,0,0.004987531,0,0,0,0,0,0
Kirsch,Adam,5/2/14,Technology is taking over english departments: the false promise of digital humanities,New Republic,Columbia University,American Studies,United States,"40.808745, -73.963967",Professor,Popular Article,M,Solo,0.006183249,0,0.010680157,0,0,0.031478359,0.057335582,0.075885329,0,0,0,0,0,0.010118044
Weinberger,David,5/2/14,Digital Humanities: Ready for your 11AM debunking?,Blog,Harvard University,Libraries,United States,"42.376052, -71.113956",Director,Blog Post,M,Solo,0,0,0.025104603,0.0013947,0,0.011157601,0.043235704,0.066945607,0,0,0,0,0,0
Underwood,Ted,5/3/14,You Can't Govern Reception,None,University of Illinois Urbana Champaign,English,United States,"40.101960, -88.226947",Professor,Blog Post,M,Solo,0,0.017006803,0.013605442,0,0.017006803,0.003401361,0.044217687,0.078231293,0,0,0,0,0,0.017006803
Benzon,Bill,5/5/14,The Only Game in Town: Digital Criticism Comes of Age,3 Quarks Daily Blog,None,None,United States,"40.706954, -74.009694",Independent Scholar,Blog Post,M,Solo,0,0.00095511,0.007640879,0.034383954,0.015281757,0.010506208,0.271251194,0.076408787,0,0,0,0,0,0.028653295
Weimer,Kathy,5/5/14,On Defining GeoHumanities,Blog,Rice University,Libraries,United States,"29.717357, -95.401799",Librarian,Blog Post,F,Solo,0,0,0.017045455,0,0.008522727,0.002840909,0,0.008522727,0.230113636,0.008522727,0.014204545,0,0,0
Worthey,Glen,5/7/14,Why are such terrible things written about DH? Kirsch v. Kirschenbaum,Blog,Stanford Universtiy,Libraries,United States,"37.426827, -122.167144",Digital Humanities Specialist,Blog Post,M,Solo,0,0.004137931,0.005517241,0,0.085517241,0,0.004137931,0.067586207,0,0,0,0,0,0.008275862
Straumsheim,Carl,5/8/14,Digital Humanities Bubble,Chronicle of Higher Education,None,None,United States,"38.906310, -77.049693",Journalist,Popular Article,M,Solo,0.049723757,0.005524862,0.022099448,0,0,0.019337017,0,0.055248619,0,0,0,0.046961326,0,0
Sample,Mark,5/12/14,Difficult Thinking about the Digital Humanities,Blog,Davidson College,Digital Humanities,United States,"35.5024917, -80.8431315",Associate Professor,Blog Post,M,Solo,0,0,0.019607843,0,0.159313725,0.06372549,0.017156863,0.144607843,0,0,0,0,0,0
Schnapp,Jeffrey,5/12/14,The Immense Promise of the Digital Humanities,Blog,Harvard University,Comparative Literature,United States,"42.377074, -71.116617",Professor,Blog Post,M,Collaborative,0,0,0.023041475,0,0.011520737,0.19124424,0.00921659,0.15437788,0,0,0.002304147,0.004608295,0.004608295,0
NEH,,5/13/14,Punch Card Humanists,Blog,NEH,None,United States,"38.883998, -77.021562",None,Blog Post,N/A,Collaborative,0,0,0.024911032,0.056939502,0,0.007117438,0,0,0,0,0,0.024911032,0.03202847,0
Varner,Stewart,5/14/14,Digital Humanities Overview for Librarians,None,University of Pennsylvania,Digital Humanities,United States,"39.952178, -75.193214",Director,Blog Post,M,Solo,0,0.001945525,0.093385214,0,0,0.023346304,0,0.001945525,0,0.095330739,0,0.019455253,0,0.052529183
Cline,Diane H,5/19/14,Digital Humanities: How Everyone Can Get a Library Card to the World's Most Exclusive Collections Online,Bible History Daily,George Washington University,History,United States,"38.899740, -77.048406",Associate Professor,Blog Post,F,Solo,0,0,0.013358779,0.005725191,0.001908397,0.005725191,0.001908397,0,0,0,0,0,0,0.017175573
Robertson,Stephen,5/23/14,The Differences between Digital History and Digital Humanities,Blog,George Mason University,History,United States,"38.8315541, -77.3120885",Professor,Blog Post,M,Solo,0,0.034172662,0.041366906,0.023381295,0.086330935,0.028776978,0.025179856,0,0.091726619,0,0,0,0.005395683,0.010791367
Munoz,Trevor,7/11/14,Making Digital Humanities Work,Blog,University of Maryland,Digital Humanities,United States,"38.9869183, -76.9425543",Digital Humanities Specialist,Blog Post,M,Collaborative,0.033244681,0.003989362,0.01462766,0.001329787,0.115691489,0.115691489,0.009308511,0.055851064,0,0.002659574,0,0,0,0
Crymble,Adam,7/15/14,"Digital Hubris, Digital Humility",Inside Higher Ed,University of Herfordshire,History,Europe,"51.752108, -0.237180",Assistant Professor,Popular Article,M,Solo,0,0,0.077306733,0.004987531,0.024937656,0,0,0.017456359,0.002493766,0,0,0,0,0.002493766
Shirazi,Roxanne,7/15/14,Reproducing the Academy: Librarians and the Question of Service in the Digital Humanities,None,CUNY,Humanities,United States,"40.748613, -73.983942",Graduate Student,Blog Post,F,Solo,0.044926805,0,0.0454316,0,0,0.00454316,0,0.001009591,0,0.466431095,0,0.002523978,0,0
Benzon,Bill,7/23/14,Beyond Quantification: Digital Criticism and the Search for Patterns,New Savanna Blog,None,None,United States,"40.706954, -74.009694",Independent Scholar,Blog Post,M,Solo,0,0,0.007312614,0,0.001828154,0,0.217550274,0.040219378,0,0,0,0.007312614,0,0.063985375
Barry,Jeff,7/24/14,Launching the Digital Humanities Movement at Washington and Lee University: A Case Study,The Academic Commons,Washington and Lee University,Libraries,United States,"37.790512, -79.444870",Associate Professor,Popular Article,M,Collaborative,0,0,0.046206019,0.000847817,0.000847817,0.059347181,0,0.001271725,0,0,0,0.291225095,0,0.016108521
Tumber,Catherine,8/1/14,Bulldozing the Humanities,None,Northeastern,Political Science,United States,"42.339894, -71.089172",Visiting Scholar,Blog Post,F,Solo,0,0,0.009888752,0.001236094,0.004944376,0,0.039555006,0.090234858,0.029666255,0,0.002472188,0.017305315,0.042027194,0.043263288
Koh,Adeline,8/14/14,Introducing digital humanities work to undergraduates: an overview,Hybrid Pedagogy,Stockton University,English,United States,"39.494183, -74.532369",Associate Professor,Journal Article,F,Solo,0.023162135,0.006042296,0.034239678,0.001007049,0,0.003021148,0,0.004028197,0,0.002014099,0,0.284994965,0,0.036253776
Owens,Trevor,8/22/14,Where to Start? On Research Questions in The Digital Humanities,Blog,Institute of Museum and Library Services,None,United States,"38.8844802, -77.0273517",None,Blog Post,M,Solo,0.010362694,0,0,0,0,0.003454231,0.013816926,0.053540587,0,0,0,0,0,0
Rees,Jonathan,8/22/14,More or Less Bunk,Blog,Colorado State University-Pueblo,History,United States,"38.306015, -104.579911",Professor,Blog Post,M,Solo,0,0,0.03164557,0,0.018987342,0.012658228,0.006329114,0,0,0,0,0.164556962,0,0
Meeks,Elijah,8/27/14,4 Lessons for Digital Humanities Scholars from Donald Rumsfeld,Blog,Stanford Universtiy,Digital Humanities,United States,"37.426827, -122.167144",Digital Humanities Specialist,Blog Post,M,Solo,0.026252983,0,0,0,0.007159905,0.033412888,0.021479714,0.07875895,0,0,0.009546539,0,0,0.183770883
Haigh,Thomas,9/1/14,We Have Never Been Digital,Communications of the ACM (Association for Computing Machinery),"University of Wisconson, Milwaukee",Information Studies,United States,"43.078984, -87.882248",Assistant Professor,Journal Article,M,Solo,0,0,0.03875969,0.008236434,0.021317829,0.022286822,0.000484496,0.007267442,0,0,0,0,0,0
Lennon,Brian,9/10/14,The Eversion of the digital humanities,Boundary 2,Penn State University,English,United States,"40.798343, -77.860295",Associate Professor,Blog Post,M,Solo,0,0,0.017397882,0,0.039334342,0.023449319,0,0.090015129,0,0,0.011346445,0,0,0
Nyhan,Julianne,9/10/14,Is Digital Humanities a collaborative discipline? Joint-authorship publication patterns clash with defining narrative,Blog,University College London,Information Studies,Europe,"51.5245592, -0.1340401",Assistant Professor,Blog Post,F,Collaborative,0,0.044506259,0.059805285,0.07232267,0.005563282,0.033379694,0.008344924,0.002781641,0,0,0,0,0,0.002781641
Weingart,Scott,9/14/14,The Moral Role of DH in a Data-Driven World,Blog,Indiana University,Information Studies,United States,"39.176680, -86.513146",Graduate Student,Blog Post,M,Solo,0.006144393,0,0.039938556,0,0.001920123,0.014976959,0.012672811,0.005376344,0.003072197,0,0.011520737,0,0,0.049539171
Alves,Daniel,10/1/14,From 'Humanities and Computing' to 'Digital Humanities': Digital Humanities in Portugal with a focus on Historical Research,H-Soz-Kult,Universidade NOVA de Lisboa,History,Europe,"38.733707, -9.160376",Professor,Journal Article,M,Solo,0,0.160759853,0.008789339,0.028352708,0,0.001417635,0,0.001701162,0,0,0,0.000567054,0,0.00481996
Kalhert,Torsten,10/1/14,The Status Quo of Digital Humanities in Europe,H/SOZ/KULT,Aarhus University,Media Studies,Europe,"56.168091, 10.203076",Postdoctoral Fellow,Journal Editorial,M,Collaborative,0,0.282369146,0.041322314,0.031680441,0.060606061,0.044077135,0,0.039944904,0,0,0,0,0,0
Gardikas-Katsiadakis,Helen,10/2/14,The Status Quo of Digital Humanities in Greece,H-Soz-Kult,Academy of Athens,History,Europe,"37.980076, 23.734228",Director,Journal Article,F,Solo,0,0.232637203,0.015541525,0.000485673,0,0.002428363,0,0.000485673,0,0,0.001457018,0,0,0
Nygren,Thomas,10/3/14,"The Status Quo of Digital Humanities in Sweeden: Past, Present and Future of Digital History",H/SOZ/KULT,Upsalla University,Education,Europe,"59.851116, 17.629956",Associate Professor,Journal Article,M,Collaborative,0,0.16323185,0.003512881,0.002576112,0.000234192,0.033255269,0.004215457,0.007025761,0.000468384,0,0,0.000234192,0,0.048711944
Van Zundert,Joris,10/4/14,Digital Humanities in the Netherlands,H/SOZ/KULT,Royal Netherlands Academy of Art,History,Europe,"52.081647, 4.319390",Developer,Journal Article,M,Collaborative,0.000394945,0.197867299,0.016982622,0.022511848,0.001184834,0.006319115,0,0.012243286,0.002369668,0,0,0,0,0.009478673
Beausang,Chris,10/29/14,Defining Digital Humanities' or 'Why Not Defining Digital Humanities Is Good For Literary Criticism',Digital Arts and Humanities,Maynooth University,English,Europe,"53.383767, -6.600006",Graduate Student,Blog Post,M,Solo,0,0,0.00209205,0.10460251,0.083682008,0.071129707,0.121338912,0.020920502,0,0,0,0.00209205,0,0
Garskova,Irina,11/1/14,The Past and Present of Digital Humanities: A View from Russia,H/SOZ/KULT,Moscow Lomonosov State University,History,Europe,"55.706638, 37.516822",Professor,Journal Article,F,Solo,0,0.45582002,0.010107597,0.039778285,0,0.003912618,0,0.000652103,0,0,0.000326052,0,0,0.000326052
Hadalin,Jurij,11/2/14,The Slovenian Digital Humanities Landscape: A Breif Overview,H/SOZ/KULT,"Institute of Contemporary History, Ljubljiana",History,Europe,"46.050836, 14.503459",Postdoctoral Fellow,Journal Article,M,Solo,0,0.157985364,0.023676281,0.014636246,0.000430478,0.000430478,0,0.004304778,0,0,0,0,0,0.008179079
Ore,Espen,11/3/14,Some Thoughts on Digital Humanities in Norway,H/SOZ/KULT,University of Oslo,Linguistics,Europe,"59.939948, 10.721664",Senior Engineer,Journal Article,M,Solo,0,0.449840764,0.007961783,0.092356688,0,0.001592357,0,0,0,0,0,0.008757962,0,0.010350318
Spence,Paul,11/4/14,A Historical Perspective on the Digital Humanities in Spain,H/SOZ/KULT,King's College London,Digital Humanities,Europe,"51.511520, -0.116072",Associate Professor,Journal Article,M,Collaborative,0,0.120717131,0.007968127,0.019521912,0.000796813,0.011155378,0,0.005179283,0,0.004780876,0,0,0,0
Hitchcock,Tim,11/9/14,"Big data, small data and meaning",Blog,University of Sussex,History,Europe,"50.867049, -0.087871",Professor,Blog Post,M,Solo,0,0,0.034862385,0.000611621,0.000611621,0.008562691,0.012232416,0.026911315,0.00795107,0,0,0.000611621,0,0.129663609
Mathews,Brian,11/24/14,Libraries as Problem Shapers: some thoughts sparked by Brian Croxall,The Chronicle,Virginia Tech,Libraries,United States,"37.231237, -80.422151",Dean,Blog Post,M,Solo,0,0,0.129807692,0,0,0.038461538,0,0,0,0,0,0.019230769,0,0
Trudell,Scott,12/29/14,Defining the humanities,OUP Blog,University of Maryland College Park,English,United States,"38.986960, -76.942533",Assistant Professor,Blog Post,M,Solo,0.021782178,0.003960396,0.03960396,0.051485149,0.073267327,0.023762376,0,0,0.011881188,0,0,0,0,0
Risam,Roopika,1/3/15,"On Disruption, Race, and the Digital Humanities",Blog,Salem State University,English,United States,"42.503103, -70.890682",Assistant Professor,Blog Post,F,Solo,0.273894437,0,0.047075606,0.009985735,0.04850214,0.039942939,0,0.019971469,0,0,0,0.002853067,0,0
Berens,Kathi Inman,1/5/15,"Want to ""Save the Humanities""? Pay Adjuncts to Learn Digital Tools",Medium.com,USC Annenberg,Digital Humanities,United States,"34.022052, -118.285302",Developer,Blog Post,F,Solo,0,0,0.029769959,0,0.02165088,0.01894452,0.00405954,0.029769959,0,0,0,0.227334235,0,0
Selisker,Scott Paul,1/6/15,Digital Humanities Knowledge: Syllabus and Reflections,Blog,University of Arizona,English,United States,"32.2318851, -110.9501094",Assistant Professor,Blog Post,M,Solo,0,0,0.112343967,0,0.079056865,0.037447989,0.023578363,0.027739251,0,0,0.001386963,0.07628294,0,0.015256588
Koh,Adeline,1/9/15,A close reading of the Dhthis cat: policing/disrupting the boundaries of the digital humanities and strategic uses for cat GIFs,Disrupting the Digital Humanities,Stockton University,English,United States,"39.494183, -74.532369",Associate Professor,Book Chapter,F,Solo,0.059219381,0,0.006729475,0,0.060565276,0.012113055,0.057873486,0.048452221,0,0,0.00538358,0,0,0
Arbesman,Samuel,1/22/15,"A Premonition of the Digital Humanities, Fifty Years Ago?",Wired,Lux Capital,None,United States,"40.007606, -105.265920",None,Popular Article,M,Solo,0,0,0,0,0,0,0.037383178,0,0,0,0,0.009345794,0.046728972,0.028037383
Fishwick,Paul,1/29/15,Engineering the Humanities,Creative Automata,University of Texas Dallas,Computer Science,United States,"32.985492, -96.750003",Professor,Blog Post,M,Solo,0,0,0.135338346,0,0,0.022556391,0.045112782,0.022556391,0,0,0,0,0,0.007518797
Puschmann,Cornelius,2/1/15,How Digital are the Digital Humanities? An Analysis of Two Scholarly Blogging Platforms,PLOS One,Zeppelin University,Social Sciences,Europe,"47.658544, 9.433917",Professor,Journal Article,M,Collaborative,0,0.009449332,0.02020202,0.011730205,0.001955034,0.02378625,0.002606712,0,0,0,0.066145324,0,0,0.033561421
Tomson,Terra,2/11/15,What is the difference between _'doing Digital Humanities' and using digital tools for research?,None,Edinburgh University,Comparative Literature,Europe,"55.944522, -3.189177",Postdoctoral Fellow,Blog Post,F,Solo,0.02722323,0.061705989,0.20508167,0.003629764,0,0.012704174,0,0,0,0,0,0,0.161524501,0.001814882
Leroi,Armand,2/13/15,One republic of learning,The New York Times,Imperial College London,Biology,Europe,"51.498786, -0.174909",Professor,Popular Article,M,Solo,0,0.009107468,0.052823315,0,0.001821494,0.010928962,0.092896175,0.091074681,0.023679417,0,0,0,0,0.003642987
Charis-Carlson,Jeff,2/23/15,Going Digital: It's not your grandma's humanities anymore,Iowa City Press-Citizen,Press-Citizen,Journalism,United States,"41.663280, -91.530992",Journalist,Popular Article,M,Solo,0,0,0.058043118,0,0,0.016583748,0,0.013266998,0,0,0,0.250414594,0,0.048092869
American University of Beirut News,,3/2/15,AUB's first Digital Humanities Institute brings poets and geeks together,AUB News,American University of Beruit,None,Other,"33.901201, 35.481200",None,Popular Article,N/A,Solo,0,0,0.06162465,0.033613445,0,0.095238095,0,0.025210084,0.098039216,0,0,0.011204482,0,0.016806723
Holm,Joshua Allen,3/3/15,Open source and humanities in the digital age,Opensource.com,Opensource.com,None,United States,"35.775426, -78.638024",Journalist,Blog Post,M,Solo,0,0.048498845,0.027713626,0,0,0.011547344,0,0,0.004618938,0,0,0.020785219,0,0.048498845
Jenkins,Henry,3/16/15,Bringing Critical Perspectives to Digital Humanities: An Interview with Tara McPherson,Blog,University of Southern California,Communication,United States,"34.022379, -118.285160",Professor,Blog Post,M,Solo,0.077994429,0,0.112349118,0,0,0.151346332,0,0,0,0,0,0,0.00185701,0.005571031
Stovold,Katrina,3/28/15,Humanitas and Humanities in the Digital Age,None,University College Cork,Digital Humanities,Europe,"51.892130, -8.493252",Graduate Student,Blog Post,F,Solo,0,0.01584507,0.098591549,0,0,0.022887324,0,0.017605634,0.01584507,0,0.003521127,0,0,0.024647887
Koh,Adeline,4/19/15,A letter to the humanities: DH will not save you,Hybrid Pedagogy,Stockton University,English,United States,"39.494183, -74.532369",Associate Professor,Journal Article,F,Solo,0.195814649,0,0.002989537,0.023916293,0,0.002989537,0,0.385650224,0.001494768,0,0,0.011958146,0,0.001494768
Gil,Alex,4/20/15,A Non-Peer-Reviewed Review of a Peer-Reviewed essay by Adeline Koh,elotroalex,Columbia University,Libraries,United States,"40.808575, -73.962755",Digital Scholarship Coordinator,Blog Post,M,Solo,0.12518266,0,0.012177302,0.021432051,0,0.011203117,0,0.267900633,0,0,0,0.011690209,0,0
Baillot,Anne,4/24/15,Two h words and one e word (#dhiha6),Open Edition Blog,Centre Zentrum March Bloch,Philosophy,Europe,"52.510747, 13.389231",Developer,Blog Post,F,Solo,0,0,0.019830028,0.002832861,0,0.002832861,0.036827195,0.314447592,0,0,0,0,0,0
Crane,Gregory,4/27/15,Seven reasons why we need an independent Digital Humanities,Self-Published,Leipzig University,Computer Science,Europe,"51.338634, 12.378483",Professor,Popular Article,M,Solo,0.000452182,0.013339362,0.039678951,0.000565227,0,0.004747909,0.000113045,0.025096089,0.0012435,0,0,0.002147863,0,0.017182908
Kaplan,Frederic,5/6/15,The art of the review: episode 18 reviewing digital history,Blog,Swiss Federal Institute of Technology in Lausanne,Digital Humanities,Europe,"46.519388, 6.567015",Professor,Blog Post,M,Solo,0,0.003481288,0.013925152,0.006092254,0.000870322,0.00870322,0.009573542,0,0,0,0.027850305,0,0,0.403829417
Koller,Guido,5/22/15,Digital Humanities: limits and possibilities: a new journal in Germany,We Think History,Swiss Federal Archives,History,Europe,"46.940407, 7.446579",Public Historian,Blog Post,M,Solo,0,0.082191781,0.006849315,0.095890411,0,0,0,0.095890411,0,0,0,0.006849315,0,0.006849315
Terras,Melissa,5/24/15,5 things we've learned about Digital Humanities in the last 5 years,None,University College London,Digital Humanities,Europe,"51.5245592, -0.1340401",Professor,Blog Post,F,Solo,0,0.05808656,0.044419134,0.003416856,0,0,0,0.003416856,0,0,0,0.001138952,0,0.001138952
Quan-Haase,Anabel,6/1/15,Networks of digital humanities scholars: The informational and social uses and gratifications of twitter,Big Data & Society,University of Western Ontario,Media Studies,Canada,"43.007824, -81.275515",Associate Professor,Journal Article,F,Collaborative,0,0,0.084275184,0.006879607,0,0.066093366,0,0.001228501,0,0,0.451351351,0.001474201,0,0.023095823
Miller,Ethan,6/3/15,What is Digital Humanities? And Why?,Blog,Freie Universitat Berlin,American Studies,Europe,"52.4525264, 13.2896787",Graduate Student,Blog Post,M,Solo,0.023897059,0,0.014705882,0,0,0.034926471,0,0.020220588,0.001838235,0,0,0.007352941,0.036764706,0
Jakacki,Diane,6/7/15,Disrupt DH?,Blog,Bucknell University,Comparative Literature,United States,"40.954883, -76.884850",Digital Scholarship Coordinator,Blog Post,F,Solo,0.008450704,0,0.14084507,0,0,0.001408451,0.008450704,0.078873239,0,0,0,0.028169014,0,0
Klein,Lauren,6/8/15,The Carework and Codework of the Digital Humanities,Blog,Georgia Institute of Technology,Media Studies,United States,"33.774830, -84.395955",Assistant Professor,Conference Paper,F,Solo,0.009345794,0,0.04953271,0,0,0.029906542,0,0.008411215,0.225233645,0.005607477,0,0.003738318,0,0.030841121
Ross,Claire Bailey,6/8/15,Defining the Digital in Arts and Humanities Research,Blog,Durham University,Digital Humanities,Europe,"54.7649859, -1.5782029",Postdoctoral Fellow,Blog Post,F,Solo,0.00754717,0.033962264,0.071698113,0.003773585,0.01509434,0.026415094,0,0,0,0,0,0.037735849,0,0.00754717
Ross,Claire Bailey,6/26/15,A 'New' Space for Innovation and Experimentation? Taking DH Outside Academia,Blog,Durham University,Digital Humanities,Europe,"54.7649859, -1.5782029",Postdoctoral Fellow,Blog Post,F,Solo,0,0.002053388,0.073921971,0.01026694,0,0.047227926,0.001368925,0.000684463,0,0,0,0,0,0.015058179
Robinson,Lyn,6/30/15,Are the Digital Humanities and Library & Information Science the Same Thing?,Blog,University of London,Libraries,Europe,"51.5229378, -0.1308206",None,Blog Post,F,Solo,0,0.02090301,0.022575251,0,0,0.037625418,0,0.011705686,0,0,0,0.00083612,0,0.015886288
Cordell,Ryan,7/1/15,Welcome to the first issue of DH Commons,DH Commons,Northeastern University,English,United States,"42.340853, -71.088893",Assistant Professor,Journal Editorial,M,Collaborative,0,0.001843318,0.043317972,0.010138249,0,0.036866359,0,0.029493088,0,0,0,0,0,0.004608295
Paradise,Laurin,7/2/15,"When you Find Out What Digital Humanities Is, Will you Tell me?",The Serials Librarian,Pratt Instutute,Libraries,United States,"40.691333, -73.962518",Graduate Student,Journal Article,F,Solo,0.000730994,0.000730994,0.00877193,0,0.011695906,0.012426901,0.040204678,0,0.242690058,0,0,0.000730994,0,0
Spence,Paul,7/9/15,Digital Humanities as an academic department,None,King's College London,Digital Humanities,Europe,"51.511520, -0.116072",Professor,Blog Post,M,Solo,0,0.026194145,0.026194145,0.001540832,0.001540832,0.069337442,0,0.009244992,0,0,0.001540832,0.021571649,0,0
O'Donnell,Daniel,7/16/15,If there's such a thing as 'computing for humanists' is there also such a thing as 'humanities for computer scientists?' On implementing interdisciplinarity in the Digital Humanities,Blog,University of Lethbridge,English,Europe,"49.678619, -112.859502",Professor,Blog Post,M,Solo,0.006060606,0.01010101,0.139393939,0.01010101,0.018181818,0.022222222,0.01010101,0.006060606,0,0,0,0.008080808,0,0
Posner,Miriam,7/27/15,"What's Next: The Radical, Unrealized Potential of Digital Humanities",Blog,UCLA,Digital Humanities,United States,"34.068921, -118.4451811",Digital Humanities Specialist,Blog Post,F,Solo,0.080159181,0.015918135,0.051165435,0,0,0.022171688,0.000568505,0.031836271,0,0,0,0,0.000568505,0.120523024
West,Shearer,8/5/15,"Move Over, Science, Humanities Tech-savvy Research is Making Waves",The Guardian,Oxford University,Humanities,Europe,"51.756581, -1.254661",Professor,Popular Article,F,Solo,0.002237136,0.062639821,0.011185682,0.004474273,0,0.029082774,0,0.008948546,0,0,0,0,0.002237136,0.026845638
Malina,Roger,8/6/15,Yes again to the end of the digital humanities! Please!,Blog,University of Texas Dallas,Physics,United States,"32.985969, -96.750046",Professor,Blog Post,M,Collaborative,0.001865672,0.042910448,0.057835821,0,0.003731343,0.041044776,0,0.059701493,0,0,0,0,0,0.050373134
Maron,Nancy,8/17/15,The digital humanities are alive and well and blooming: now what?,Educause,Ithaka S+R,None,United States,"40.708008, -74.013124",Director,Blog Post,F,Solo,0.002644104,0,0.059227922,0,0,0.008989952,0,0.000528821,0,0,0,0.002644104,0,0.000528821
Willan,Claude,8/19/15,We Write Sentences. About Sentences,Blog,Princeton University,Digital Humanities,United States,"40.349461, -74.657404",Postdoctoral Fellow,Blog Post,M,Solo,0,0,0.019713262,0,0.019713262,0.037634409,0.003584229,0.03046595,0.001792115,0,0,0,0,0.019713262
Harrison,Matthew,8/29/15,Surfaces about surfaces,Blog,Albion College,English,United States,"42.243990, -84.745156",Visiting Scholar,Blog Post,M,Solo,0,0,0.01607717,0,0,0.022508039,0.097534834,0.015005359,0,0,0,0,0,0.022508039
Manovich,Lev,9/1/15,"The Science of Culture? Social Computing, Digital Humanities, and Cultural Analytics",Cultural Analytics Lab,CUNY,The Graduate Center,United States,"40.748613, -73.983942",Professor,Pamphlet,M,Solo,0.000654236,0.05659143,0.02060844,0.003598299,0,0.007196598,0,0.002289827,0.00163559,0,0.036964344,0,0,0.328099444
Sample,Mark,9/5/15,Your Mistake was a Vital Connection: Oblique Strategies for the Digital Humanities,Blog,Davidson College,Digital Humanities,United States,"35.5024917, -80.8431315",Associate Professor,Blog Post,M,Solo,0,0,0.026711185,0.015025042,0.000556483,0.02392877,0.030606566,0.002225932,0,0,0.01279911,0.019476906,0,0.044518642
Underwood,Ted,9/7/15,Digital Humanities Might Never be Evenly Distributed,None,University of Illinois Urbana Champaign,English,United States,"40.101960, -88.226947",Professor,Blog Post,M,Solo,0.004819277,0,0.03373494,0,0,0.028915663,0,0,0,0,0,0.004819277,0,0.002409639
Long,Seth,9/15/15,Editors Choice: Structuralist Methods in a Post-Structuralist Humanities,Blog,University of Nebraska Kearney,English,United States,"40.700460, -99.094679",Assistant Professor,Blog Post,M,Solo,0.008474576,0.016949153,0.025423729,0.008474576,0,0,0.050847458,0.042372881,0,0,0,0,0,0.042372881
Reeves,Troy,9/15/15,Bringing the Digital Humanities into the classroom,Blog,University of Wisconson-Madison,None,United States,"43.076592, -89.4124875",None,Blog Post,M,Solo,0.002053388,0,0.112936345,0,0,0.014373717,0.002053388,0.002053388,0,0,0.004106776,0.340862423,0,0.006160164
O'Sullivan,James,10/1/15,The Emergence of the Digital Humanities in Ireland,brea: A Digital Journal of Irish Studies,Penn State University,Libraries,Europe,"40.798246, -77.859919",Digital Humanities Specialist,Journal Article,M,Collaborative,0.001925298,0.058914132,0.047362341,0.035040431,0.010396611,0.042356565,0,0.01193685,0,0,0,0,0.005005776,0.009626492
Bauer,Jean,10/3/15,"Baking Gingerbread, as a DH Project",Packets Blog,Princeton,Digital Humanities,United States,"40.343964, -74.651362",Associate Director,Blog Post,F,Solo,0.022082019,0,0.094637224,0,0.009463722,0.015772871,0,0.006309148,0,0,0,0,0,0
Nowviskie,Bethany,10/4/15,On Capacity and Care,Blog,University of Virginia,English,United States,"38.033629, -78.507891",Associate Professor,Blog Post,F,Solo,0.003248863,0,0.135477583,0,0,0.025990903,0.008122157,0.024041585,0,0.012020793,0,0,0,0.016894087
Glass,Erin,10/9/15,Open science and the digital humanities,GC Digital Fellows,CUNY,English,United States,"40.758202, -73.994993",Graduate Student,Blog Post,F,Solo,0,0,0.11634757,0,0,0.019145803,0.002945508,0.041237113,0,0,0,0,0.125184094,0.00736377
Mauro,Aaron,10/21/15,Digital humanities communities of practice author perspectives,Cogent OA,Penn State Erie,English,United States,"42.119292, -79.983671",Assistant Professor,Journal Article,M,Solo,0,0,0.160356347,0.005567929,0.023385301,0.051224944,0.0077951,0.006681514,0.003340757,0,0,0.012249443,0.070155902,0.0077951
Kim,Dorothy,11/1/15,Ask a digital humanities medievalist,Hortulus: the ONline Graduate Journal of Medieval Studies,Vassar College,English,United States,"41.686007, -73.897343",Assistant Professor,Journal Article,F,Solo,0.03950104,0.001386001,0.099099099,0.003465003,0.002079002,0.004158004,0,0.002079002,0.000693001,0,0.004158004,0.033264033,0,0.024255024
Farrell,Lance,11/9/15,XSEDE humanities gateways,Science Node,Indiana University,Libraries,United States,"39.176547, -86.512889",Librarian,Blog Post,M,Solo,0,0,0.008474576,0.002824859,0,0.002824859,0,0,0.028248588,0,0,0,0,0.110169492
Ramsay,Stephen,11/19/15,The Digital Naif,Blog,University of Nebraska-Lincoln,English,United States,"40.8201966, -96.7004763",Associate Professor,Blog Post,M,Solo,0.00304878,0,0.027439024,0.028963415,0.027439024,0.007621951,0.042682927,0.022865854,0,0,0,0,0,0
Little,Ann,11/24/15,A strong argument for actual and virtual libraries as 'humanities labs',Blog,Colorado State University,History,United States,"40.573249, -105.086343",Associate Professor,Blog Post,F,Solo,0,0,0.110320285,0,0,0,0.003558719,0.03202847,0,0,0,0.003558719,0,0
Clare,Angela,11/25/15,Being (Digital) Humans,Renaissance Utterances Blog,None,None,Europe,"51.508612, -0.127074",Independent Scholar,Blog Post,F,Solo,0,0,0.086165049,0.009708738,0.003640777,0.024271845,0.003640777,0,0,0,0.002427184,0.001213592,0,0.018203883
Fiormonte,Domenico,11/25/15,Digital Humanities in Kerala. Some lessons from the South,Infolet,University of Roma Tre,Political Science,Europe,"41.864599, 12.478522",Professor,Blog Post,M,Solo,0,0,0.109215017,0,0,0.010238908,0,0.006825939,0,0,0,0,0,0
Chitwood,Ken,12/3/15,"Hiring, firing, & evaluating digital humanities scholarship",Ken Chitwood Blog,University of Florida,Religious Studies,United States,"29.643567, -82.354844",Graduate Student,Blog Post,M,Solo,0,0,0.10782241,0,0,0.025369979,0,0,0.002114165,0,0,0,0,0
Fraistat,Neil,12/4/15,Data first: remodelling the digital humanities centre,piirus,University of Maryland,English,United States,"38.986668, -76.942447",Professor,Blog Post,M,Solo,0,0.09148265,0.074132492,0,0,0.023659306,0,0.007886435,0,0,0,0.007886435,0.004731861,0.033123028
McMichael,Alice Lynn,12/4/15,Collaborative Definitions,Blog,CUNY,Art History,United States,"40.7506304, -73.9734177",Graduate Student,Blog Post,F,Solo,0.018018018,0,0.117117117,0.006006006,0,0.045045045,0,0.006006006,0,0,0,0.261261261,0,0.012012012
Bigham,Douglas,12/10/15,Teaching Digital Skillz,DSBingham.net blog,San Diego State University,Linguistics,United States,"32.775929, -117.071889",Assistant Professor,Blog Post,M,Solo,0.006510417,0.001302083,0.203125,0.006510417,0.009114583,0.013020833,0,0.00390625,0.00390625,0,0,0.016927083,0,0.052083333
Christie,Alex,1/1/16,Manifesto of Modernist Digital Humanities,Manifesto,University of Victoria,English,Canada,"48.463158, -123.311543",Graduate Student,Manifesto,M,Collaborative,0,0.017721519,0.060759494,0.002531646,0.005063291,0.015189873,0.075949367,0.040506329,0,0,0,0,0,0.037974684
EADH,,1/1/16,Diversity and Inclusivity,EADH,EADH,None,Europe,"51.511486, -0.115997",None,Blog Post,N/A,Solo,0,0,0.090551181,0,0.003937008,0.043307087,0,0.007874016,0,0,0.003937008,0,0.027559055,0
Evans,Justin,1/1/16,System Reboot,The Point,Villanova University,Humanities,United States,"40.036925, -75.343516",Postdoctoral Fellow,Journal Article,M,Solo,0.022292994,0.003184713,0.015923567,0,0,0.004246285,0.055201699,0.055201699,0,0,0,0.014861996,0,0.003184713
Naukkarinen,Ossi,1/1/16,Aesthetics in the Age of Digital Humanities,Journal of Aesthetics & Culture,"Aalto University School of Arts, Design and Architecture",Art,Europe,"60.209573, 24.976498",Dean,Journal Article,M,Collaborative,0,0.004810005,0.011303511,0.003126503,0.000721501,0.008658009,0,0.002886003,0,0,0.006974507,0.0002405,0.000721501,0.070947571
Varner,Stewart,1/4/16,Special Report: Digital Humanities in Libraries,American Libraries,University of Pennsylvania,Digital Humanities,United States,"39.952178, -75.193214",Director,Journal Article,M,Collaborative,0,0.015882353,0.071764706,0.011176471,0,0.02,0.021176471,0.001176471,0.012941176,0.247058824,0,0.021176471,0.011176471,0.003529412
Perez,Annemarie,1/6/16,Lowriding Through the Digital Humanities,Blog,Loyola Marymount University,Chicana/o Studies,United States,"33.9697859, -118.4169289",Adjunct Faculty,Blog Post,F,Solo,0.290598291,0,0.152136752,0,0.008547009,0.005128205,0,0.018803419,0,0,0,0.020512821,0,0
University of Helsinki,,1/7/16,Our Digital Humanities,None,University of Helsinki,Digital Humanities,Europe,"60.172587, 24.951063",None,Blog Post,N/A,Solo,0.022900763,0.007633588,0.099236641,0.022900763,0,0.007633588,0,0.015267176,0,0,0,0,0,0
O'Mara,Ashley,1/8/16,The Human in the Digital Humanities,Blog,Syracuse University,English,United States,"43.0391534, -76.1351158",Graduate Student,Blog Post,F,Solo,0.001680672,0.001680672,0.013445378,0,0,0,0,0.001680672,0,0,0,0.013445378,0,0.018487395
Whitson,Roger,1/9/16,"Mea Culpa for #transformdh, and a Selection from Steampunk and 19thC Digital Humanities",Blog,Washington State Universtiy,English,United States,"46.731959, -117.154341",Assistant Professor,Blog Post,M,Solo,0.127857748,0,0.074513124,0.00254022,0.012701101,0.034716342,0.00677392,0.00762066,0,0,0.009314141,0,0.033022862,0.011007621
Englebert,Robert,1/12/16,Colonial History in the Age of Digital Humanities,Early Canadian History Blog,University of Ottawa,History,Canada,"45.423114, -75.683111",Assistant Professor,Blog Post,M,Solo,0,0.092326139,0.041966427,0,0,0.021582734,0.001199041,0,0,0,0,0,0,0.035971223
Caroon,Laura,1/13/16,Doing Digital Humanities,Concordia College Blog,Concordia College,Communication,United States,"46.862826, -96.769564",Content Strategist,Blog Post,F,Solo,0,0,0.054945055,0,0,0.027472527,0,0.002747253,0,0,0,0.357142857,0,0
Stommel,Jesse,1/20/16,Interactive Criticism and the Embodied Digital Humanities,Digital Pedagogy Lab,University of Mary Washington,Education,United States,"38.299708, -77.471443",Director,Blog Post,M,Solo,0.008056395,0,0.012084592,0.001007049,0,0.054380665,0.145015106,0.025176234,0.011077543,0,0,0,0.007049345,0
Ruff,Corinne,1/28/16,"Computer Science, Meet Humanities: in New Majors, Opposites Attract",Blog,Industry Drive,None,United States,"38.901449, -77.035362",Journalist,Blog Post,F,Solo,0,0.002873563,0.048850575,0,0,0,0,0,0,0,0,0.07183908,0,0.025862069
Schocket,Andy,2/2/16,Embracing ephemerality in the digital humanities,Blog,Bowling Green State University,History,United States,"41.3797788, -83.6300826",Professor,Blog Post,M,Solo,0,0,0.057142857,0,0,0,0,0.030769231,0.063736264,0,0,0,0,0
Jastram,Iris,2/8/16,The digital humanities and the librarian,Blog,Carleton College,Libraries,United States,"44.461277, -93.156047",Librarian,Blog Post,F,Solo,0,0,0.026515152,0,0,0,0,0.003787879,0,0.117424242,0.007575758,0,0,0.007575758
Turan,Juliana,2/9/16,How exactly do the 'digital humanities' mix science with the arts?,The Student Newspaper,None,None,United States,None,Communications Manager,Popular Article,F,Solo,0,0,0.024291498,0.012145749,0,0.016194332,0.16194332,0,0,0,0,0,0,0.048582996
McClary,Gray,2/10/16,Digital Humanities Pedagogy in Practice,Blog,Wright State University,English,United States,"39.780050, -84.064696",Graduate Student,Blog Post,M,Solo,0,0,0.169117647,0.014705882,0,0,0,0.080882353,0,0,0,0.169117647,0,0
Morris,Sean Michael,2/12/16,Digital Humanities and the Erosion of Inquiry,Blog,Digital Pedagogy Lab,None,United States,"44.0082595, -73.1773152",None,Blog Post,M,Solo,0.047965116,0,0.106104651,0,0,0.004360465,0.001453488,0.037790698,0,0,0,0.014534884,0,0
Barlow,Aaron,2/13/16,Digital Humanities or Digital Hemming?,One Flew East Blog,New York City College of Technology (CUNY),English,United States,"40.695575, -73.987223",Professor,Blog Post,M,Solo,0,0.003577818,0.080500894,0.001788909,0.01431127,0.033989267,0,0.078711986,0,0,0,0,0,0
Guerriero,Dalia,2/14/16,Cultural Tourism and digital Humanities,blog,University of Evora,History,Europe,"38.568559, -7.910515",Professor,Blog Post,F,Solo,0,0,0.091304348,0,0,0.130434783,0,0,0,0,0,0,0,0.026086957
Loewen,Nathan,2/15/16,"Let's get digital, digital (humanities)! part one",Blog,University of Alabama,Religious Studies,United States,"33.213969, -87.539035",Assistant Professor,Blog Post,M,Solo,0,0.008196721,0.229508197,0,0,0.008196721,0,0.057377049,0,0,0,0.237704918,0,0
Honkela,Timo,2/16/16,The 'digital' in the digital humanities,Blog,University of Helsinki,Comparative Literature,Europe,"60.172656, 24.951203",Professor,Blog Post,M,Solo,0,0,0.026315789,0,0,0.052631579,0.005263158,0,0,0,0,0,0,0.071052632
Barad,Dilip,2/18/16,Research Prospects in Digital Humanities and Cyberspace Textuality,Dilip Barad's Blog,M.K. Bhavnagar University,English,Europe,"21.758330, 72.132926",Professor,Blog Post,M,Solo,0.00587156,0,0.013211009,0.012110092,0,0.026055046,0.048440367,0.017247706,0,0.005137615,0,0,0,0.016880734
Lake,Crystal,2/22/16,Knowledge and Understanding: Methods and Theory in Digital Humanities,inspire-lab.net blog,Wright State University,English,United States,"39.782696, -84.060919",Associate Professor,Blog Post,F,Solo,0,0,0.018072289,0,0,0.186746988,0.036144578,0.102409639,0,0,0,0.006024096,0,0.018072289
Barrett,Paul,2/24/16,Argumentative Game Genie: Rhetoric in the Digital Humanities,Paul Barrett Blog,University of Toronto,Engineering,Canada,"43.663070, -79.395656",Adjunct Faculty,Blog Post,M,Solo,0.001121076,0,0.010089686,0.003363229,0,0,0.06838565,0.091928251,0,0,0,0,0,0.07735426
Visconti,Amanda,2/28/16,Service +/- collaboration for digital humanities in the library (a DH job talk),Blog,Purdue Universtiy,Libraries,United States,"40.424504, -86.912648",Assistant Professor,Blog Post,F,Solo,0.002557545,0,0.106138107,0.000639386,0.00831202,0.003196931,0,0.005754476,0.007672634,0.083759591,0,0.018542199,0.029411765,0.006393862
Ravy,Tawnya,2/29/16,The #DHattheCC Project: Digital Humanities Needs Community Colleges,Blog,George Washington University,English,United States,"38.8997145, -77.0485992",Graduate Student,Blog Post,F,Solo,0.01978691,0,0.143074581,0,0,0.02891933,0,0,0,0,0,0.248097412,0,0.01065449
Walsh,Brandon,2/29/16,"Apps, Maps, & Models: A New View",Blog,Washington and Lee University,Libraries,United States,"37.791342, -79.443969",Assistant Professor,Blog Post,M,Solo,0,0,0.122807018,0,0,0,0,0.042105263,0,0,0,0.031578947,0.010526316,0.007017544
Clow,Larry,3/1/16,Humanities in the Digital Age,University of New Hampshire Blog,University of New Hampshire,English,United States,"43.138893, -70.937218",Adjunct Faculty,Blog Post,M,Solo,0,0,0.081497797,0.019823789,0,0.008810573,0.035242291,0.019823789,0,0,0,0,0,0
Klein,Lauren,3/1/16,Digital Humanities: The Expanded Field,Debates in the Digital Humanities,Georgia Tech,Media Studies,United States,"33.773672, -84.396254",Assistant Professor,Book Chapter,M,Collaborative,0.034629405,0.000607533,0.04981774,0.015795869,0.034021871,0.040097205,0,0.014580802,0,0,0,0,0,0
Martin,John D. III,3/1/16,"Digital Humanities, digital hegemony: exploring funding practices and unequal access in the digital humanities",ACM SIGCAS Computers and Society,UNC Chapel Hill,Libraries,United States,"35.911235, -79.049310",Graduate Student,Journal Article,M,Collaborative,0.181902124,0,0,0,0,0.028624192,0,0.013850416,0.000923361,0,0,0,0,0.005540166
Dinsman,Melissa,3/2/16,The Digital in the Humanities: An Interview with Franco Moretti,LA Review of Books,University of Notre Dame,Visual Studies,United States,"41.705580, -86.235339",Postdoctoral Fellow,Interview,F,Solo,0,0.019636364,0.024,0,0,0.001454545,0.072,0.064727273,0,0,0,0,0,0.000727273
O'Donnell,Daniel,3/2/16,A first law of humanities computing,Journal of Brief Ideas,University of Lethbridge,English,Europe,"49.678619, -112.859502",Professor,Journal Article,M,Solo,0,0.021276596,0,0.053191489,0,0,0.021276596,0.021276596,0,0,0,0,0,0.021276596
Fea,John,3/18/16,Religion and Digital Humanities in the classroom,Blog,Messiah College,History,United States,"40.157932, -76.988162",Professor,Blog Post,M,Solo,0,0,0.056338028,0,0,0,0,0.028169014,0.126760563,0,0,0.14084507,0,0
Kleinman,Scott,3/26/16,Digital humanities projects with small and unusal data: some experiences from the trenches,Blog,California State University Northridge,English,United States,"34.235871, -118.528047",Professor,Blog Post,M,Solo,0,0.00062422,0.02309613,0.007490637,0.011235955,0.001248439,0.039950062,0.038701623,0,0,0,0.011235955,0,0.376404494
Dinsman,Melissa,3/27/16,The Digital in the Humanities: An Interview with Alexander R. Galloway,LA Review of Books,University of Notre Dame,Visual Studies,United States,"41.705580, -86.235339",Postdoctoral Fellow,Interview,F,Solo,0,0.003552398,0.042036708,0,0.001184133,0.017761989,0.031379515,0.063351095,0,0,0,0,0,0.007696862
McCarthy,Sean,3/29/16,Notes toward a values-driven framework for Digital Humanities Pedagogy,Blog,James Madison  University,Writing and Rhetoric,United States,"38.435092, -78.8697548",Assistant Professor,Blog Post,M,Collaborative,0.008403361,0,0.084733894,0,0.004901961,0.037114846,0.004901961,0.043417367,0,0,0,0.205882353,0.077731092,0
Caplan,Lindsay,4/1/16,Method without Methodology: Data and the Digital Humanities,e-flux journal,Rhode Island School of Design,Art,United States,"41.826019, -71.407009",Assistant Professor,Journal Article,F,Solo,0.009193777,0,0.026166902,0,0.001414427,0.024752475,0.010608204,0.048797737,0,0,0,0,0,0.198727016
Rings,Steven,4/1/16,Two Perspectives on the Digital Humanities,Blog,University of Chicago,Music,United States,"41.788904, -87.599057",Associate Professor,Blog Post,M,Collaborative,0.006475486,0,0.002775208,0.009250694,0,0.123959297,0.076780759,0.000925069,0,0,0.005550416,0,0,0.06012951
Zipp,Bobby,4/1/16,The New Digital Humanities Manifesto,Manifesto,Swarthmore College,Undergraduate,United States,"39.906816, -75.355638",Undergraduate Student,Manifesto,M,Collaborative,0,0,0.049180328,0.038251366,0.005464481,0.032786885,0,0.06010929,0,0.049180328,0,0,0,0.005464481
Newton,Michael,4/3/16,Ethno-linguistic Equity in (Digital) Humanities: The Impossible Dream?,Blog,University of North Carolina-Chapel Hill,Digital Humanities,United States,"35.9049122, -79.0469134",Digital Humanities Specialist,Blog Post,M,Solo,0.057840617,0.005141388,0.046272494,0,0.01285347,0.019280206,0.028277635,0.010282776,0,0,0,0,0,0
Berry,David M,4/14/16,The Digital Humanities Stack,Stunlaw blog,University of Sussex,Digital Humanities,Europe,"50.867164, -0.087850",Professor,Blog Post,M,Solo,0,0,0.048128342,0,0,0.042780749,0,0,0,0,0,0,0,0
Grandjean,Martin,4/15/16,A social network analysis of Twitter: Mapping the digital humanities community,cogent,University of Lausanne,History,Europe,"46.521126, 6.580279",Researcher,Journal Article,M,Solo,0.00036914,0.010335917,0.013658176,0,0.002583979,0,0,0,0,0,0.472499077,0.00073828,0.012919897,0.063122924
Sakuma,Colbei,4/20/16,Digital Humanities: the new hobby horse?,Blog,University of Missouri St. Louis,History,United States,"38.709240, -90.308238",Graduate Student,Blog Post,M,Solo,0.010526316,0.010526316,0.031578947,0,0,0.026315789,0,0.078947368,0,0,0,0.026315789,0,0
Dunning,Alistair,4/22/16,A Vision for the Digital Humanities,Available Online Blog,Technical University of Delft,Libraries,Europe,"52.000788, 4.372006",Head of Research Data,Blog Post,M,Solo,0.003076923,0.055384615,0.058461538,0.030769231,0,0.046153846,0,0.012307692,0,0,0,0,0,0
Dinsman,Melissa,4/28/16,The Digital in the Humanities: An Interview with Richard Jean So,LA Review of Books,University of Notre Dame,Visual Studies,United States,"41.705580, -86.235339",Postdoctoral Fellow,Interview,F,Solo,0.04837683,0,0.035009548,0,0.007638447,0.007638447,0.019732654,0.093570974,0,0,0,0,0,0.004455761
Afsari-Mamagani,Grace,5/1/16,In Defense of DH,HASTAC blog,New York University,English,United States,"40.729522, -73.996568",Graduate Student,Blog Post,F,Solo,0.029761905,0.00297619,0.080357143,0.00297619,0,0.080357143,0,0.136904762,0,0,0,0,0,0.035714286
Allington,Daniel,5/1/16,Neoliberal Tools (and Archives): A Political History of Digital Humanities,LA Review of Books,University of the West of England,Digital Humanities,Europe,"51.499828, -2.546472",Associate Professor,Blog Post,M,Collaborative,0.011524164,0.007806691,0.026765799,0.033828996,0.008550186,0.020074349,0.018587361,0.034944238,0,0,0,0,0,0.003345725
Reid,Alex,5/1/16,de-baits in the digital humanities,Blog,University of Buffalo,English,United States,"43.0008093, -78.7889697",Associate Professor,Blog Post,M,Solo,0.015384615,0,0.043076923,0,0,0.006153846,0,0.095384615,0,0,0,0,0.009230769,0.012307692
Barlow,Aaron,5/2/16,Punch with Care,Academe Blog,New York City College of Technology (CUNY),English,United States,"40.695575, -73.987223",Professor,Blog Post,M,Solo,0,0.005277045,0.005277045,0,0.01055409,0.023746702,0.013192612,0.050131926,0,0,0,0.002638522,0,0.005277045
Jacobs,Alan,5/2/16,Critquing the critique of digital humanities,The New Atlantis,Baylor University,Humanities,United States,"31.549859, -97.114572",Distinguished Professor,Blog Post,M,Solo,0,0,0.013409962,0,0,0.013409962,0.001915709,0.055555556,0,0,0.001915709,0,0,0.005747126
Robertson,Stephen,5/2/16,Finding Questions As Well As Answers: Conceptualizing Digital Humanities Research,Blog,George Mason University,History,United States,"38.8315541, -77.3120885",Professor,Blog Post,M,Solo,0,0,0.016824395,0.012618297,0,0.034700315,0.041535226,0.002103049,0.239221872,0,0,0.000525762,0,0.081493165
Singh,Amardeep,5/2/16,In Defense of Digital Humanities (by a Non-Tool),None,Lehigh University,English,United States,"40.606884, -75.378283",Associate Professor,Blog Post,M,Solo,0.044260028,0,0.091286307,0,0.006915629,0.019363762,0.009681881,0.035961272,0,0,0,0.004149378,0.020746888,0
Weingart,Scott,5/2/16,Digital History Can Never Be New,Blog,Carnegie Mellon University,Humanities,United States,"40.443474, -79.943489",Digital Humanities Specialist,Blog Post,M,Solo,0,0,0.034928849,0,0.002587322,0,0,0.031047865,0,0,0,0,0.001293661,0
Benzon,Bill,5/3/16,"Digital Humanities in the cross-hairs, with the cavalry on the way",New Savanna Blog,None,None,United States,"40.706954, -74.009694",Independent Scholar,Blog Post,M,Solo,0,0,0.009302326,0.004651163,0.009302326,0.046511628,0.004651163,0.041860465,0,0,0,0,0,0
Caraher,Bill,5/3/16,Digital Humanities and the New Liberal Arts,Mediteranneanworld blog,University of North Dakota at Grand Forks,History,United States,"47.922898, -97.076866",Professor,Blog Post,M,Solo,0,0.00204918,0.069672131,0,0.00204918,0.016393443,0.016393443,0.032786885,0,0,0,0.094262295,0,0
Clements,Jacquelyn,5/3/16,In Support of the Digital Humanities,Jacquelyn Clements Blog,University of Toronto,Art,Canada,"43.662962, -79.395699",Postdoctoral Fellow,Blog Post,F,Solo,0.022494888,0.00408998,0.08793456,0,0.006134969,0,0,0.014314928,0,0,0,0.006134969,0,0.00204499
Hedley,Alison,5/3/16,"Response to 'Neoliberal Tools: a Political History of Digital Humanities""",Blog,Ryerson University,Communication,United States,"43.657612, -79.378727",Graduate Student,Blog Post,F,Solo,0.0591133,0.019704433,0.019704433,0.009852217,0.017241379,0.002463054,0.049261084,0.041871921,0,0,0,0,0,0
Risam,Roopika,5/3/16,Digital Humanities in Other Contexts,Blog,Salem State University,English,United States,"42.503103, -70.890682",Assistant Professor,Blog Post,F,Solo,0.012612613,0,0.163963964,0,0,0.057657658,0,0.018018018,0,0,0,0.052252252,0.003603604,0
Greenspan,Brian,5/4/16,The Scandal of Digital Humanities,Hyperlab,Carleton University,Digital Humanities,Canada,"45.387559, -75.696031",Director,Blog Post,M,Solo,0,0,0.062138728,0.007225434,0,0.023121387,0.01300578,0.073699422,0,0,0,0,0,0
Underwood,Ted,5/4/16,Versions of Disciplinary History,None,University of Illinois Urbana Champaign,English,United States,"40.101960, -88.226947",Professor,Blog Post,M,Solo,0,0.054814815,0.022222222,0.016296296,0.026666667,0.025185185,0.038518519,0.037037037,0,0.023703704,0,0,0.011851852,0
Tessa,Anonymous,5/5/16,To Be in DH Is To Be Under Attack,None,Unknown,History,Europe,None,Graduate Student,Blog Post,F,Solo,0,0.005882353,0.032679739,0.000653595,0.030718954,0.000653595,0.003267974,0.041176471,0,0,0,0,0.012418301,0.005882353
Straumsheim,Carl,5/6/16,Digital Humanities as 'Corporatist Restructuring',Inside Higher Ed,None,None,United States,"38.903170, -77.041357",Journalist,Popular Article,M,Solo,0,0,0,0,0,0,0,0.010729614,0,0,0,0.008583691,0,0
Rosen,Michele,5/7/16,Digital Humanities and the Neoliberal Takeover of the University: A Response,S-USIH Blog,University of Texas Dallas,English,United States,"32.984610, -96.749638",Graduate Student,Blog Post,F,Solo,0,0,0.008281573,0,0,0.002070393,0,0.074534161,0,0,0,0,0,0
Barlow,Aaron,5/8/16,Snobbery and the Digital Humanities,One Flew East Blog,New York City College of Technology (CUNY),English,United States,"40.695575, -73.987223",Professor,Blog Post,M,Solo,0,0,0.013100437,0,0.002183406,0.008733624,0,0.065502183,0,0,0,0,0,0
Engel,Kate Carte,5/8/16,"Religion, Revolution, and Digital Humanities: A Guest Post from Kate Carte Engel",Before It's News Blog,Southern Methodist University,History,United States,"32.841245, -96.784560",Associate Professor,Blog Post,F,Solo,0,0,0.11627907,0,0,0,0,0.015503876,0.044573643,0,0,0.104651163,0,0
Benzon,Bill,5/9/16,An Interesting Response to Moretti on Digital Humanities,New Savanna Blog,None,None,United States,"40.706954, -74.009694",Independent Scholar,Blog Post,M,Solo,0,0,0.053030303,0,0.022727273,0.007575758,0.075757576,0.121212121,0,0,0,0,0,0.015151515
Dinsman,Melissa,5/9/16,The Digital in the Humanities: An Interview with Bethany Nowviskie,LA Review of Books,University of Notre Dame,Visual Studies,United States,"41.705580, -86.235339",Postdoctoral Fellow,Interview,F,Solo,0.021424435,0.002316155,0.0671685,0.01447597,0,0.027214823,0.01447597,0.045165026,0,0,0,0.00984366,0,0.01447597
Spahr,Juliana,5/11/16,Beyond Resistance: Towards a Future History of Digital Humanities,LA Review of Books,None,None,United States,"34.098372, -118.335622",Poet,Book Review,F,Collaborative,0.044189853,0.024549918,0.019639935,0,0.042553191,0.04091653,0.032733224,0.106382979,0.004909984,0,0,0,0,0.024549918
Kirschenbaum,Matthew,5/12/16,Am I a digital humanist? confessions of a neoliberl tool,Medium,University of Maryland,English,United States,"38.986757, -76.942332",Professor,Popular Article,M,Solo,0.009325986,0,0.065705808,0.027554048,0.034760492,0.009749894,0.004662993,0.010173802,0,0,0,0,0.006358627,0
Lippincot,Joan,5/12/16,Supporting Digital Humanities: CNI Executive Roundtable Report,CNI News,Coalition for Networked Information,None,United States,"38.908886, -77.043749",Associate Director,Blog Post,F,Solo,0,0.000682594,0.043686007,0,0,0.032764505,0,0.005460751,0,0,0,0.000682594,0,0.004095563
Wright,Julia,5/12/16,Tooling Around the Neoliberal Elephant,Blog,Dalhousie University,English,Canada,"44.636749, -63.591591",Professor,Blog Post,F,Solo,0,0.024676851,0.023501763,0,0.002350176,0.008225617,0,0.041128085,0,0,0.002350176,0,0.029377203,0
Reid,Alex,5/13/16,"otters' noses, digital humanities, political progress, and splitters",Blog,University of Buffalo,English,United States,"43.0008093, -78.7889697",Associate Professor,Blog Post,M,Solo,0,0,0.0265625,0,0.0203125,0,0.0046875,0.03125,0,0,0,0.03125,0,0.00625
Wright,Ben,5/13/16,Neoliberalism and DH in the Classroom,Blog,University of Texas at Dallas,History,United States,"32.985825, -96.750185",Assistant Professor,Blog Post,M,Solo,0.020637899,0.001876173,0.189493433,0.005628518,0.001876173,0.033771107,0,0.003752345,0.009380863,0,0,0.108818011,0,0
Pigliucci,Massimo,5/14/16,Where Do We Go Next?,Blog,CUNY,Philosophy,United States,"40.748452, -73.983374",Professor,Blog Post,M,Solo,0,0,0.011818779,0,0.001969796,0.003282994,0.103086014,0.030203546,0,0,0,0,0.001969796,0.009848982
Warren,Chris,5/16/16,Toward a Pragmatics of Error in the Digital Humanities,Blog,Carnegie Mellon University,English,United States,"40.443392, -79.943543",Associate Professor,Blog Post,M,Solo,0.00462963,0,0.016203704,0.011574074,0,0.006944444,0.018518519,0,0,0,0.025462963,0,0,0.013888889
Osborne,Nicola,5/18/16,"Digital Day of Ideas 2016, Live Blog",Blog,University of Edinburgh,None,Europe,"55.9445158, -3.1892413",None,Blog Post,F,Solo,0.007312614,0,0.064716636,0,0,0.021572212,0.00511883,0.008043876,0,0,0,0.000365631,0,0.073857404
Straumsheim,Carl,5/19/16,Digital humanities scholars are like Silicon Valley 'disruptors',Inside Higher Ed,None,None,United States,"38.903170, -77.041357",Journalist,Popular Article,M,Solo,0,0,0.004282655,0,0,0,0.002141328,0.002141328,0,0,0,0.002141328,0,0
Wheeles,Dana,5/19/16,Digital Humanities and the unsung entrepreneurs of academia,Blog,None,None,United States,"38.041029, -78.459225",Freelance,Blog Post,F,Solo,0,0,0.084210526,0,0,0.015789474,0,0,0,0,0,0.052631579,0,0
Trynoski,Danielle,5/22/16,Digital Humanities at Kalamazoo: A Recap,None,University of York,Archeology,Europe,"53.945578, -1.056188",Graduate Student,Blog Post,F,Solo,0.004819277,0.101204819,0.115662651,0,0,0.028915663,0,0.002409639,0.079518072,0,0,0,0,0.004819277
Benzon,Bill,5/23/16,"What's in a Name? - ""Digital Humanities"" [#DH] and ""Computational Linguistics""",New Savanna Blog,None,None,United States,"40.706954, -74.009694",Independent Scholar,Blog Post,M,Solo,0,0,0.023506366,0.02546523,0.038197845,0.001958864,0.002938296,0.058765916,0,0,0,0,0.000979432,0.014691479
Fishwick,Paul,5/28/16,Digital Humanities and the Technology Red Herring,Creative Automata,University of Texas Dallas,Computer Science,United States,"32.985492, -96.750003",Professor,Blog Post,M,Solo,0,0,0.005555556,0,0,0.016666667,0.1,0.088888889,0.005555556,0,0,0,0,0.027777778
Graham,Shawn,6/1/16,Digital Humanities is Archaeology,Electric Archaeology,Carleton University,History,Canada,"45.387559, -75.696031",Associate Professor,Blog Post,M,Solo,0,0.002717391,0.004076087,0,0,0.014945652,0.050271739,0.048913043,0,0,0,0.00951087,0,0.061141304
Mone,Gregory,6/1/16,What's Next for Digital Humanities,Communications of the ACM (Association for Computing Machinery),None,None,United States,"42.356998, -71.059178",Novelist,Journal Editorial,M,Solo,0.001322751,0.015873016,0.068783069,0.023809524,0.001322751,0,0.027777778,0.001322751,0.130952381,0,0,0.001322751,0.005291005,0.084656085
Roy,Gilles,6/1/16,Big Data: Endgame of Virtual History,Blog,National Film Board of Canada,Education,Canada,"45.499945, -73.566545",Design Specialist,Blog Post,M,Solo,0,0,0.016960651,0,0,0.010854817,0,0.049525102,0,0,0,0,0.00339213,0.045454545
Losh,Elizabeth,6/10/16,"Feminist Digital Humanities: Theoretical, Social, and Material Engagements around Meaking and Breaking Computational Media",DHSI,William and Mary University,English,United States,"37.272963, -76.713507",Associate Professor,Blog Post,F,Collaborative,0.123222749,0.011848341,0.030805687,0.026066351,0.002369668,0.111374408,0.021327014,0.028436019,0,0,0,0.033175355,0,0.018957346
Kramer,Michael,6/12/16,The Digital Humanities Reader,Blog,Northwestern,History,United States,"42.057479, -87.676565",Visiting Scholar,Blog Post,M,Solo,0.045226131,0,0.082914573,0,0.007537688,0.067839196,0.105527638,0.025125628,0,0,0,0,0,0.022613065
Tsui,Lik,6/13/16,The Digital Humanities as an Emerging Field in China,None,Harvard University,History,United States,"42.377074, -71.116617",Postdoctoral Fellow,Blog Post,M,Solo,0,0.139492754,0.045289855,0.009057971,0,0,0,0.003623188,0.009057971,0,0,0,0,0.050724638
Andrews,Tara,8/2/16,Digital Humanities: Abstract & Introduction,"Digital Humanities, Living Books About History Series",University of Bern,Digital Humanities,Europe,"46.950555, 7.438226",Assistant Professor,Book Chapter,F,Solo,0.001448226,0.000724113,0.032585083,0.175235337,0.013758146,0.035481535,0.004344678,0.091962346,0,0.000724113,0,0.001448226,0,0.002896452
Capozzi,Mae,8/13/16,What are the Digital Humanities?,Medium.com,501 Auctions,None,United States,"42.350254, -71.056550",Developer,Blog Post,F,Solo,0,0.009803922,0.009803922,0.039215686,0.034313725,0.098039216,0,0.053921569,0,0,0,0,0,0
Braunstein,Laura,8/17/16,6 Questions for a Digital Huamnities Librarian,Inside Higher Ed,Dartmouth College,Libraries,United States,"43.704417, -72.288650",Librarian,Popular Article,F,Solo,0,0,0.040160643,0.018072289,0.02811245,0.006024096,0,0,0.004016064,0.084337349,0,0,0,0
Arvizu,Nanci,8/28/16,Digital Scholarly Editing: Theories and Practices (Digital Humanities),"Writing and Reviews, Publishing, and Promotion",None,None,United States,"33.448260, -112.061922",Editor,Blog Post,F,Solo,0,0,0,0,0.025862069,0.025862069,0.034482759,0.094827586,0,0,0,0,0,0